Computer_Organization_CPU_Design/Vivado/31CPU_new/31CPU_new.sim/sim_1/behav/xsim/simulate.log
Vivado Simulator 2018.1
Time resolution is 1 ps
WARNING: This core is supplied with a behavioral model. To model cycle-accurate behavior you must run timing simulation.
Time:                    5, PC: 000, Instruction: 00000000000000000000000000000000, ALU_A: xxxxxxxxxxxxxxxxxxxxxxxxxxxxxxxx, ALU_B:00000000000000000000000000000000, ALU_ans: xxxxxxxxxxxxxxxxxxxxxxxxxxxxxxxx, Op:000000, Func: 000000
Ext16_signed In:0000000000000000, Ext16_signed Out:00000000000000000000000000000000, Ext16_zero_out         0
RsC:zzzzz, RtC:zzzzz, RdC:zzzzz
array_reg_ID_0:zzzzzzzzzzzzzzzzzzzzzzzzzzzzzzzz, array_reg_ID_1:zzzzzzzzzzzzzzzzzzzzzzzzzzzzzzzz, array_reg_ID_2:zzzzzzzzzzzzzzzzzzzzzzzzzzzzzzzz, array_reg_ID_3:zzzzzzzzzzzzzzzzzzzzzzzzzzzzzzzz
array_reg_ID_4:zzzzzzzzzzzzzzzzzzzzzzzzzzzzzzzz, array_reg_ID_5:zzzzzzzzzzzzzzzzzzzzzzzzzzzzzzzz, array_reg_ID_6:zzzzzzzzzzzzzzzzzzzzzzzzzzzzzzzz, array_reg_ID_7:zzzzzzzzzzzzzzzzzzzzzzzzzzzzzzzz
array_reg_ID_8:zzzzzzzzzzzzzzzzzzzzzzzzzzzzzzzz, array_reg_ID_9:zzzzzzzzzzzzzzzzzzzzzzzzzzzzzzzz, array_reg_ID_10:zzzzzzzzzzzzzzzzzzzzzzzzzzzzzzzz, array_reg_ID_11:zzzzzzzzzzzzzzzzzzzzzzzzzzzzzzzz
array_reg_ID_12:zzzzzzzzzzzzzzzzzzzzzzzzzzzzzzzz, array_reg_ID_13:zzzzzzzzzzzzzzzzzzzzzzzzzzzzzzzz, array_reg_ID_14:zzzzzzzzzzzzzzzzzzzzzzzzzzzzzzzz, array_reg_ID_15:zzzzzzzzzzzzzzzzzzzzzzzzzzzzzzzz
array_reg_ID_16:zzzzzzzzzzzzzzzzzzzzzzzzzzzzzzzz, array_reg_ID_17:zzzzzzzzzzzzzzzzzzzzzzzzzzzzzzzz, array_reg_ID_18:zzzzzzzzzzzzzzzzzzzzzzzzzzzzzzzz, array_reg_ID_19:zzzzzzzzzzzzzzzzzzzzzzzzzzzzzzzz
array_reg_ID_20:zzzzzzzzzzzzzzzzzzzzzzzzzzzzzzzz, array_reg_ID_21:zzzzzzzzzzzzzzzzzzzzzzzzzzzzzzzz, array_reg_ID_22:zzzzzzzzzzzzzzzzzzzzzzzzzzzzzzzz, array_reg_ID_23:zzzzzzzzzzzzzzzzzzzzzzzzzzzzzzzz
array_reg_ID_24:zzzzzzzzzzzzzzzzzzzzzzzzzzzzzzzz, array_reg_ID_25:zzzzzzzzzzzzzzzzzzzzzzzzzzzzzzzz, array_reg_ID_26:zzzzzzzzzzzzzzzzzzzzzzzzzzzzzzzz, array_reg_ID_27:zzzzzzzzzzzzzzzzzzzzzzzzzzzzzzzz
array_reg_ID_28:zzzzzzzzzzzzzzzzzzzzzzzzzzzzzzzz, array_reg_ID_29:zzzzzzzzzzzzzzzzzzzzzzzzzzzzzzzz, array_reg_ID_30:zzzzzzzzzzzzzzzzzzzzzzzzzzzzzzzz, array_reg_ID_31:zzzzzzzzzzzzzzzzzzzzzzzzzzzzzzzz
Time:                   15, PC: 000, Instruction: 00000000000000000000000000000000, ALU_A: xxxxxxxxxxxxxxxxxxxxxxxxxxxxxxxx, ALU_B:00000000000000000000000000000000, ALU_ans: xxxxxxxxxxxxxxxxxxxxxxxxxxxxxxxx, Op:000000, Func: 000000
Ext16_signed In:0000000000000000, Ext16_signed Out:00000000000000000000000000000000, Ext16_zero_out         0
RsC:zzzzz, RtC:zzzzz, RdC:zzzzz
array_reg_ID_0:zzzzzzzzzzzzzzzzzzzzzzzzzzzzzzzz, array_reg_ID_1:zzzzzzzzzzzzzzzzzzzzzzzzzzzzzzzz, array_reg_ID_2:zzzzzzzzzzzzzzzzzzzzzzzzzzzzzzzz, array_reg_ID_3:zzzzzzzzzzzzzzzzzzzzzzzzzzzzzzzz
array_reg_ID_4:zzzzzzzzzzzzzzzzzzzzzzzzzzzzzzzz, array_reg_ID_5:zzzzzzzzzzzzzzzzzzzzzzzzzzzzzzzz, array_reg_ID_6:zzzzzzzzzzzzzzzzzzzzzzzzzzzzzzzz, array_reg_ID_7:zzzzzzzzzzzzzzzzzzzzzzzzzzzzzzzz
array_reg_ID_8:zzzzzzzzzzzzzzzzzzzzzzzzzzzzzzzz, array_reg_ID_9:zzzzzzzzzzzzzzzzzzzzzzzzzzzzzzzz, array_reg_ID_10:zzzzzzzzzzzzzzzzzzzzzzzzzzzzzzzz, array_reg_ID_11:zzzzzzzzzzzzzzzzzzzzzzzzzzzzzzzz
array_reg_ID_12:zzzzzzzzzzzzzzzzzzzzzzzzzzzzzzzz, array_reg_ID_13:zzzzzzzzzzzzzzzzzzzzzzzzzzzzzzzz, array_reg_ID_14:zzzzzzzzzzzzzzzzzzzzzzzzzzzzzzzz, array_reg_ID_15:zzzzzzzzzzzzzzzzzzzzzzzzzzzzzzzz
array_reg_ID_16:zzzzzzzzzzzzzzzzzzzzzzzzzzzzzzzz, array_reg_ID_17:zzzzzzzzzzzzzzzzzzzzzzzzzzzzzzzz, array_reg_ID_18:zzzzzzzzzzzzzzzzzzzzzzzzzzzzzzzz, array_reg_ID_19:zzzzzzzzzzzzzzzzzzzzzzzzzzzzzzzz
array_reg_ID_20:zzzzzzzzzzzzzzzzzzzzzzzzzzzzzzzz, array_reg_ID_21:zzzzzzzzzzzzzzzzzzzzzzzzzzzzzzzz, array_reg_ID_22:zzzzzzzzzzzzzzzzzzzzzzzzzzzzzzzz, array_reg_ID_23:zzzzzzzzzzzzzzzzzzzzzzzzzzzzzzzz
array_reg_ID_24:zzzzzzzzzzzzzzzzzzzzzzzzzzzzzzzz, array_reg_ID_25:zzzzzzzzzzzzzzzzzzzzzzzzzzzzzzzz, array_reg_ID_26:zzzzzzzzzzzzzzzzzzzzzzzzzzzzzzzz, array_reg_ID_27:zzzzzzzzzzzzzzzzzzzzzzzzzzzzzzzz
array_reg_ID_28:zzzzzzzzzzzzzzzzzzzzzzzzzzzzzzzz, array_reg_ID_29:zzzzzzzzzzzzzzzzzzzzzzzzzzzzzzzz, array_reg_ID_30:zzzzzzzzzzzzzzzzzzzzzzzzzzzzzzzz, array_reg_ID_31:zzzzzzzzzzzzzzzzzzzzzzzzzzzzzzzz
Time:                   25, PC: 004, Instruction: 00100100000000110111111111111111, ALU_A: 00000000000000000000000000000000, ALU_B:00000000000000000111111111111111, ALU_ans: 00000000000000000111111111111111, Op:001001, Func: 111111
Ext16_signed In:0111111111111111, Ext16_signed Out:00000000000000000111111111111111, Ext16_zero_out     32767
RsC:zzzzz, RtC:zzzzz, RdC:zzzzz
array_reg_ID_0:zzzzzzzzzzzzzzzzzzzzzzzzzzzzzzzz, array_reg_ID_1:zzzzzzzzzzzzzzzzzzzzzzzzzzzzzzzz, array_reg_ID_2:zzzzzzzzzzzzzzzzzzzzzzzzzzzzzzzz, array_reg_ID_3:zzzzzzzzzzzzzzzzzzzzzzzzzzzzzzzz
array_reg_ID_4:zzzzzzzzzzzzzzzzzzzzzzzzzzzzzzzz, array_reg_ID_5:zzzzzzzzzzzzzzzzzzzzzzzzzzzzzzzz, array_reg_ID_6:zzzzzzzzzzzzzzzzzzzzzzzzzzzzzzzz, array_reg_ID_7:zzzzzzzzzzzzzzzzzzzzzzzzzzzzzzzz
array_reg_ID_8:zzzzzzzzzzzzzzzzzzzzzzzzzzzzzzzz, array_reg_ID_9:zzzzzzzzzzzzzzzzzzzzzzzzzzzzzzzz, array_reg_ID_10:zzzzzzzzzzzzzzzzzzzzzzzzzzzzzzzz, array_reg_ID_11:zzzzzzzzzzzzzzzzzzzzzzzzzzzzzzzz
array_reg_ID_12:zzzzzzzzzzzzzzzzzzzzzzzzzzzzzzzz, array_reg_ID_13:zzzzzzzzzzzzzzzzzzzzzzzzzzzzzzzz, array_reg_ID_14:zzzzzzzzzzzzzzzzzzzzzzzzzzzzzzzz, array_reg_ID_15:zzzzzzzzzzzzzzzzzzzzzzzzzzzzzzzz
array_reg_ID_16:zzzzzzzzzzzzzzzzzzzzzzzzzzzzzzzz, array_reg_ID_17:zzzzzzzzzzzzzzzzzzzzzzzzzzzzzzzz, array_reg_ID_18:zzzzzzzzzzzzzzzzzzzzzzzzzzzzzzzz, array_reg_ID_19:zzzzzzzzzzzzzzzzzzzzzzzzzzzzzzzz
array_reg_ID_20:zzzzzzzzzzzzzzzzzzzzzzzzzzzzzzzz, array_reg_ID_21:zzzzzzzzzzzzzzzzzzzzzzzzzzzzzzzz, array_reg_ID_22:zzzzzzzzzzzzzzzzzzzzzzzzzzzzzzzz, array_reg_ID_23:zzzzzzzzzzzzzzzzzzzzzzzzzzzzzzzz
array_reg_ID_24:zzzzzzzzzzzzzzzzzzzzzzzzzzzzzzzz, array_reg_ID_25:zzzzzzzzzzzzzzzzzzzzzzzzzzzzzzzz, array_reg_ID_26:zzzzzzzzzzzzzzzzzzzzzzzzzzzzzzzz, array_reg_ID_27:zzzzzzzzzzzzzzzzzzzzzzzzzzzzzzzz
array_reg_ID_28:zzzzzzzzzzzzzzzzzzzzzzzzzzzzzzzz, array_reg_ID_29:zzzzzzzzzzzzzzzzzzzzzzzzzzzzzzzz, array_reg_ID_30:zzzzzzzzzzzzzzzzzzzzzzzzzzzzzzzz, array_reg_ID_31:zzzzzzzzzzzzzzzzzzzzzzzzzzzzzzzz
Time:                   35, PC: 008, Instruction: 00100100000001110000000000001111, ALU_A: 00000000000000000000000000000000, ALU_B:00000000000000000000000000001111, ALU_ans: 00000000000000000000000000001111, Op:001001, Func: 001111
Ext16_signed In:0000000000001111, Ext16_signed Out:00000000000000000000000000001111, Ext16_zero_out        15
RsC:zzzzz, RtC:zzzzz, RdC:zzzzz
array_reg_ID_0:zzzzzzzzzzzzzzzzzzzzzzzzzzzzzzzz, array_reg_ID_1:zzzzzzzzzzzzzzzzzzzzzzzzzzzzzzzz, array_reg_ID_2:zzzzzzzzzzzzzzzzzzzzzzzzzzzzzzzz, array_reg_ID_3:zzzzzzzzzzzzzzzzzzzzzzzzzzzzzzzz
array_reg_ID_4:zzzzzzzzzzzzzzzzzzzzzzzzzzzzzzzz, array_reg_ID_5:zzzzzzzzzzzzzzzzzzzzzzzzzzzzzzzz, array_reg_ID_6:zzzzzzzzzzzzzzzzzzzzzzzzzzzzzzzz, array_reg_ID_7:zzzzzzzzzzzzzzzzzzzzzzzzzzzzzzzz
array_reg_ID_8:zzzzzzzzzzzzzzzzzzzzzzzzzzzzzzzz, array_reg_ID_9:zzzzzzzzzzzzzzzzzzzzzzzzzzzzzzzz, array_reg_ID_10:zzzzzzzzzzzzzzzzzzzzzzzzzzzzzzzz, array_reg_ID_11:zzzzzzzzzzzzzzzzzzzzzzzzzzzzzzzz
array_reg_ID_12:zzzzzzzzzzzzzzzzzzzzzzzzzzzzzzzz, array_reg_ID_13:zzzzzzzzzzzzzzzzzzzzzzzzzzzzzzzz, array_reg_ID_14:zzzzzzzzzzzzzzzzzzzzzzzzzzzzzzzz, array_reg_ID_15:zzzzzzzzzzzzzzzzzzzzzzzzzzzzzzzz
array_reg_ID_16:zzzzzzzzzzzzzzzzzzzzzzzzzzzzzzzz, array_reg_ID_17:zzzzzzzzzzzzzzzzzzzzzzzzzzzzzzzz, array_reg_ID_18:zzzzzzzzzzzzzzzzzzzzzzzzzzzzzzzz, array_reg_ID_19:zzzzzzzzzzzzzzzzzzzzzzzzzzzzzzzz
array_reg_ID_20:zzzzzzzzzzzzzzzzzzzzzzzzzzzzzzzz, array_reg_ID_21:zzzzzzzzzzzzzzzzzzzzzzzzzzzzzzzz, array_reg_ID_22:zzzzzzzzzzzzzzzzzzzzzzzzzzzzzzzz, array_reg_ID_23:zzzzzzzzzzzzzzzzzzzzzzzzzzzzzzzz
array_reg_ID_24:zzzzzzzzzzzzzzzzzzzzzzzzzzzzzzzz, array_reg_ID_25:zzzzzzzzzzzzzzzzzzzzzzzzzzzzzzzz, array_reg_ID_26:zzzzzzzzzzzzzzzzzzzzzzzzzzzzzzzz, array_reg_ID_27:zzzzzzzzzzzzzzzzzzzzzzzzzzzzzzzz
array_reg_ID_28:zzzzzzzzzzzzzzzzzzzzzzzzzzzzzzzz, array_reg_ID_29:zzzzzzzzzzzzzzzzzzzzzzzzzzzzzzzz, array_reg_ID_30:zzzzzzzzzzzzzzzzzzzzzzzzzzzzzzzz, array_reg_ID_31:zzzzzzzzzzzzzzzzzzzzzzzzzzzzzzzz
Time:                   45, PC: 00c, Instruction: 00100100000001110000000000001111, ALU_A: 00000000000000000000000000000000, ALU_B:00000000000000000000000000001111, ALU_ans: 00000000000000000000000000001111, Op:001001, Func: 001111
Ext16_signed In:0000000000001111, Ext16_signed Out:00000000000000000000000000001111, Ext16_zero_out        15
RsC:zzzzz, RtC:zzzzz, RdC:zzzzz
array_reg_ID_0:zzzzzzzzzzzzzzzzzzzzzzzzzzzzzzzz, array_reg_ID_1:zzzzzzzzzzzzzzzzzzzzzzzzzzzzzzzz, array_reg_ID_2:zzzzzzzzzzzzzzzzzzzzzzzzzzzzzzzz, array_reg_ID_3:zzzzzzzzzzzzzzzzzzzzzzzzzzzzzzzz
array_reg_ID_4:zzzzzzzzzzzzzzzzzzzzzzzzzzzzzzzz, array_reg_ID_5:zzzzzzzzzzzzzzzzzzzzzzzzzzzzzzzz, array_reg_ID_6:zzzzzzzzzzzzzzzzzzzzzzzzzzzzzzzz, array_reg_ID_7:zzzzzzzzzzzzzzzzzzzzzzzzzzzzzzzz
array_reg_ID_8:zzzzzzzzzzzzzzzzzzzzzzzzzzzzzzzz, array_reg_ID_9:zzzzzzzzzzzzzzzzzzzzzzzzzzzzzzzz, array_reg_ID_10:zzzzzzzzzzzzzzzzzzzzzzzzzzzzzzzz, array_reg_ID_11:zzzzzzzzzzzzzzzzzzzzzzzzzzzzzzzz
array_reg_ID_12:zzzzzzzzzzzzzzzzzzzzzzzzzzzzzzzz, array_reg_ID_13:zzzzzzzzzzzzzzzzzzzzzzzzzzzzzzzz, array_reg_ID_14:zzzzzzzzzzzzzzzzzzzzzzzzzzzzzzzz, array_reg_ID_15:zzzzzzzzzzzzzzzzzzzzzzzzzzzzzzzz
array_reg_ID_16:zzzzzzzzzzzzzzzzzzzzzzzzzzzzzzzz, array_reg_ID_17:zzzzzzzzzzzzzzzzzzzzzzzzzzzzzzzz, array_reg_ID_18:zzzzzzzzzzzzzzzzzzzzzzzzzzzzzzzz, array_reg_ID_19:zzzzzzzzzzzzzzzzzzzzzzzzzzzzzzzz
array_reg_ID_20:zzzzzzzzzzzzzzzzzzzzzzzzzzzzzzzz, array_reg_ID_21:zzzzzzzzzzzzzzzzzzzzzzzzzzzzzzzz, array_reg_ID_22:zzzzzzzzzzzzzzzzzzzzzzzzzzzzzzzz, array_reg_ID_23:zzzzzzzzzzzzzzzzzzzzzzzzzzzzzzzz
array_reg_ID_24:zzzzzzzzzzzzzzzzzzzzzzzzzzzzzzzz, array_reg_ID_25:zzzzzzzzzzzzzzzzzzzzzzzzzzzzzzzz, array_reg_ID_26:zzzzzzzzzzzzzzzzzzzzzzzzzzzzzzzz, array_reg_ID_27:zzzzzzzzzzzzzzzzzzzzzzzzzzzzzzzz
array_reg_ID_28:zzzzzzzzzzzzzzzzzzzzzzzzzzzzzzzz, array_reg_ID_29:zzzzzzzzzzzzzzzzzzzzzzzzzzzzzzzz, array_reg_ID_30:zzzzzzzzzzzzzzzzzzzzzzzzzzzzzzzz, array_reg_ID_31:zzzzzzzzzzzzzzzzzzzzzzzzzzzzzzzz
Time:                   55, PC: 010, Instruction: 00100100000010110101010101010101, ALU_A: 00000000000000000000000000000000, ALU_B:00000000000000000101010101010101, ALU_ans: 00000000000000000101010101010101, Op:001001, Func: 010101
Ext16_signed In:0101010101010101, Ext16_signed Out:00000000000000000101010101010101, Ext16_zero_out     21845
RsC:zzzzz, RtC:zzzzz, RdC:zzzzz
array_reg_ID_0:zzzzzzzzzzzzzzzzzzzzzzzzzzzzzzzz, array_reg_ID_1:zzzzzzzzzzzzzzzzzzzzzzzzzzzzzzzz, array_reg_ID_2:zzzzzzzzzzzzzzzzzzzzzzzzzzzzzzzz, array_reg_ID_3:zzzzzzzzzzzzzzzzzzzzzzzzzzzzzzzz
array_reg_ID_4:zzzzzzzzzzzzzzzzzzzzzzzzzzzzzzzz, array_reg_ID_5:zzzzzzzzzzzzzzzzzzzzzzzzzzzzzzzz, array_reg_ID_6:zzzzzzzzzzzzzzzzzzzzzzzzzzzzzzzz, array_reg_ID_7:zzzzzzzzzzzzzzzzzzzzzzzzzzzzzzzz
array_reg_ID_8:zzzzzzzzzzzzzzzzzzzzzzzzzzzzzzzz, array_reg_ID_9:zzzzzzzzzzzzzzzzzzzzzzzzzzzzzzzz, array_reg_ID_10:zzzzzzzzzzzzzzzzzzzzzzzzzzzzzzzz, array_reg_ID_11:zzzzzzzzzzzzzzzzzzzzzzzzzzzzzzzz
array_reg_ID_12:zzzzzzzzzzzzzzzzzzzzzzzzzzzzzzzz, array_reg_ID_13:zzzzzzzzzzzzzzzzzzzzzzzzzzzzzzzz, array_reg_ID_14:zzzzzzzzzzzzzzzzzzzzzzzzzzzzzzzz, array_reg_ID_15:zzzzzzzzzzzzzzzzzzzzzzzzzzzzzzzz
array_reg_ID_16:zzzzzzzzzzzzzzzzzzzzzzzzzzzzzzzz, array_reg_ID_17:zzzzzzzzzzzzzzzzzzzzzzzzzzzzzzzz, array_reg_ID_18:zzzzzzzzzzzzzzzzzzzzzzzzzzzzzzzz, array_reg_ID_19:zzzzzzzzzzzzzzzzzzzzzzzzzzzzzzzz
array_reg_ID_20:zzzzzzzzzzzzzzzzzzzzzzzzzzzzzzzz, array_reg_ID_21:zzzzzzzzzzzzzzzzzzzzzzzzzzzzzzzz, array_reg_ID_22:zzzzzzzzzzzzzzzzzzzzzzzzzzzzzzzz, array_reg_ID_23:zzzzzzzzzzzzzzzzzzzzzzzzzzzzzzzz
array_reg_ID_24:zzzzzzzzzzzzzzzzzzzzzzzzzzzzzzzz, array_reg_ID_25:zzzzzzzzzzzzzzzzzzzzzzzzzzzzzzzz, array_reg_ID_26:zzzzzzzzzzzzzzzzzzzzzzzzzzzzzzzz, array_reg_ID_27:zzzzzzzzzzzzzzzzzzzzzzzzzzzzzzzz
array_reg_ID_28:zzzzzzzzzzzzzzzzzzzzzzzzzzzzzzzz, array_reg_ID_29:zzzzzzzzzzzzzzzzzzzzzzzzzzzzzzzz, array_reg_ID_30:zzzzzzzzzzzzzzzzzzzzzzzzzzzzzzzz, array_reg_ID_31:zzzzzzzzzzzzzzzzzzzzzzzzzzzzzzzz
Time:                   65, PC: 014, Instruction: 00100100000011010000000000001111, ALU_A: 00000000000000000000000000000000, ALU_B:00000000000000000000000000001111, ALU_ans: 00000000000000000000000000001111, Op:001001, Func: 001111
Ext16_signed In:0000000000001111, Ext16_signed Out:00000000000000000000000000001111, Ext16_zero_out        15
RsC:zzzzz, RtC:zzzzz, RdC:zzzzz
array_reg_ID_0:zzzzzzzzzzzzzzzzzzzzzzzzzzzzzzzz, array_reg_ID_1:zzzzzzzzzzzzzzzzzzzzzzzzzzzzzzzz, array_reg_ID_2:zzzzzzzzzzzzzzzzzzzzzzzzzzzzzzzz, array_reg_ID_3:zzzzzzzzzzzzzzzzzzzzzzzzzzzzzzzz
array_reg_ID_4:zzzzzzzzzzzzzzzzzzzzzzzzzzzzzzzz, array_reg_ID_5:zzzzzzzzzzzzzzzzzzzzzzzzzzzzzzzz, array_reg_ID_6:zzzzzzzzzzzzzzzzzzzzzzzzzzzzzzzz, array_reg_ID_7:zzzzzzzzzzzzzzzzzzzzzzzzzzzzzzzz
array_reg_ID_8:zzzzzzzzzzzzzzzzzzzzzzzzzzzzzzzz, array_reg_ID_9:zzzzzzzzzzzzzzzzzzzzzzzzzzzzzzzz, array_reg_ID_10:zzzzzzzzzzzzzzzzzzzzzzzzzzzzzzzz, array_reg_ID_11:zzzzzzzzzzzzzzzzzzzzzzzzzzzzzzzz
array_reg_ID_12:zzzzzzzzzzzzzzzzzzzzzzzzzzzzzzzz, array_reg_ID_13:zzzzzzzzzzzzzzzzzzzzzzzzzzzzzzzz, array_reg_ID_14:zzzzzzzzzzzzzzzzzzzzzzzzzzzzzzzz, array_reg_ID_15:zzzzzzzzzzzzzzzzzzzzzzzzzzzzzzzz
array_reg_ID_16:zzzzzzzzzzzzzzzzzzzzzzzzzzzzzzzz, array_reg_ID_17:zzzzzzzzzzzzzzzzzzzzzzzzzzzzzzzz, array_reg_ID_18:zzzzzzzzzzzzzzzzzzzzzzzzzzzzzzzz, array_reg_ID_19:zzzzzzzzzzzzzzzzzzzzzzzzzzzzzzzz
array_reg_ID_20:zzzzzzzzzzzzzzzzzzzzzzzzzzzzzzzz, array_reg_ID_21:zzzzzzzzzzzzzzzzzzzzzzzzzzzzzzzz, array_reg_ID_22:zzzzzzzzzzzzzzzzzzzzzzzzzzzzzzzz, array_reg_ID_23:zzzzzzzzzzzzzzzzzzzzzzzzzzzzzzzz
array_reg_ID_24:zzzzzzzzzzzzzzzzzzzzzzzzzzzzzzzz, array_reg_ID_25:zzzzzzzzzzzzzzzzzzzzzzzzzzzzzzzz, array_reg_ID_26:zzzzzzzzzzzzzzzzzzzzzzzzzzzzzzzz, array_reg_ID_27:zzzzzzzzzzzzzzzzzzzzzzzzzzzzzzzz
array_reg_ID_28:zzzzzzzzzzzzzzzzzzzzzzzzzzzzzzzz, array_reg_ID_29:zzzzzzzzzzzzzzzzzzzzzzzzzzzzzzzz, array_reg_ID_30:zzzzzzzzzzzzzzzzzzzzzzzzzzzzzzzz, array_reg_ID_31:zzzzzzzzzzzzzzzzzzzzzzzzzzzzzzzz
Time:                   75, PC: 018, Instruction: 00100101110011100000000011111111, ALU_A: 00000000000000000000000000000000, ALU_B:00000000000000000000000011111111, ALU_ans: 00000000000000000000000011111111, Op:001001, Func: 111111
Ext16_signed In:0000000011111111, Ext16_signed Out:00000000000000000000000011111111, Ext16_zero_out       255
RsC:zzzzz, RtC:zzzzz, RdC:zzzzz
array_reg_ID_0:zzzzzzzzzzzzzzzzzzzzzzzzzzzzzzzz, array_reg_ID_1:zzzzzzzzzzzzzzzzzzzzzzzzzzzzzzzz, array_reg_ID_2:zzzzzzzzzzzzzzzzzzzzzzzzzzzzzzzz, array_reg_ID_3:zzzzzzzzzzzzzzzzzzzzzzzzzzzzzzzz
array_reg_ID_4:zzzzzzzzzzzzzzzzzzzzzzzzzzzzzzzz, array_reg_ID_5:zzzzzzzzzzzzzzzzzzzzzzzzzzzzzzzz, array_reg_ID_6:zzzzzzzzzzzzzzzzzzzzzzzzzzzzzzzz, array_reg_ID_7:zzzzzzzzzzzzzzzzzzzzzzzzzzzzzzzz
array_reg_ID_8:zzzzzzzzzzzzzzzzzzzzzzzzzzzzzzzz, array_reg_ID_9:zzzzzzzzzzzzzzzzzzzzzzzzzzzzzzzz, array_reg_ID_10:zzzzzzzzzzzzzzzzzzzzzzzzzzzzzzzz, array_reg_ID_11:zzzzzzzzzzzzzzzzzzzzzzzzzzzzzzzz
array_reg_ID_12:zzzzzzzzzzzzzzzzzzzzzzzzzzzzzzzz, array_reg_ID_13:zzzzzzzzzzzzzzzzzzzzzzzzzzzzzzzz, array_reg_ID_14:zzzzzzzzzzzzzzzzzzzzzzzzzzzzzzzz, array_reg_ID_15:zzzzzzzzzzzzzzzzzzzzzzzzzzzzzzzz
array_reg_ID_16:zzzzzzzzzzzzzzzzzzzzzzzzzzzzzzzz, array_reg_ID_17:zzzzzzzzzzzzzzzzzzzzzzzzzzzzzzzz, array_reg_ID_18:zzzzzzzzzzzzzzzzzzzzzzzzzzzzzzzz, array_reg_ID_19:zzzzzzzzzzzzzzzzzzzzzzzzzzzzzzzz
array_reg_ID_20:zzzzzzzzzzzzzzzzzzzzzzzzzzzzzzzz, array_reg_ID_21:zzzzzzzzzzzzzzzzzzzzzzzzzzzzzzzz, array_reg_ID_22:zzzzzzzzzzzzzzzzzzzzzzzzzzzzzzzz, array_reg_ID_23:zzzzzzzzzzzzzzzzzzzzzzzzzzzzzzzz
array_reg_ID_24:zzzzzzzzzzzzzzzzzzzzzzzzzzzzzzzz, array_reg_ID_25:zzzzzzzzzzzzzzzzzzzzzzzzzzzzzzzz, array_reg_ID_26:zzzzzzzzzzzzzzzzzzzzzzzzzzzzzzzz, array_reg_ID_27:zzzzzzzzzzzzzzzzzzzzzzzzzzzzzzzz
array_reg_ID_28:zzzzzzzzzzzzzzzzzzzzzzzzzzzzzzzz, array_reg_ID_29:zzzzzzzzzzzzzzzzzzzzzzzzzzzzzzzz, array_reg_ID_30:zzzzzzzzzzzzzzzzzzzzzzzzzzzzzzzz, array_reg_ID_31:zzzzzzzzzzzzzzzzzzzzzzzzzzzzzzzz
Time:                   85, PC: 01c, Instruction: 00100100000100100000000000010010, ALU_A: 00000000000000000000000000000000, ALU_B:00000000000000000000000000010010, ALU_ans: 00000000000000000000000000010010, Op:001001, Func: 010010
Ext16_signed In:0000000000010010, Ext16_signed Out:00000000000000000000000000010010, Ext16_zero_out        18
RsC:zzzzz, RtC:zzzzz, RdC:zzzzz
array_reg_ID_0:zzzzzzzzzzzzzzzzzzzzzzzzzzzzzzzz, array_reg_ID_1:zzzzzzzzzzzzzzzzzzzzzzzzzzzzzzzz, array_reg_ID_2:zzzzzzzzzzzzzzzzzzzzzzzzzzzzzzzz, array_reg_ID_3:zzzzzzzzzzzzzzzzzzzzzzzzzzzzzzzz
array_reg_ID_4:zzzzzzzzzzzzzzzzzzzzzzzzzzzzzzzz, array_reg_ID_5:zzzzzzzzzzzzzzzzzzzzzzzzzzzzzzzz, array_reg_ID_6:zzzzzzzzzzzzzzzzzzzzzzzzzzzzzzzz, array_reg_ID_7:zzzzzzzzzzzzzzzzzzzzzzzzzzzzzzzz
array_reg_ID_8:zzzzzzzzzzzzzzzzzzzzzzzzzzzzzzzz, array_reg_ID_9:zzzzzzzzzzzzzzzzzzzzzzzzzzzzzzzz, array_reg_ID_10:zzzzzzzzzzzzzzzzzzzzzzzzzzzzzzzz, array_reg_ID_11:zzzzzzzzzzzzzzzzzzzzzzzzzzzzzzzz
array_reg_ID_12:zzzzzzzzzzzzzzzzzzzzzzzzzzzzzzzz, array_reg_ID_13:zzzzzzzzzzzzzzzzzzzzzzzzzzzzzzzz, array_reg_ID_14:zzzzzzzzzzzzzzzzzzzzzzzzzzzzzzzz, array_reg_ID_15:zzzzzzzzzzzzzzzzzzzzzzzzzzzzzzzz
array_reg_ID_16:zzzzzzzzzzzzzzzzzzzzzzzzzzzzzzzz, array_reg_ID_17:zzzzzzzzzzzzzzzzzzzzzzzzzzzzzzzz, array_reg_ID_18:zzzzzzzzzzzzzzzzzzzzzzzzzzzzzzzz, array_reg_ID_19:zzzzzzzzzzzzzzzzzzzzzzzzzzzzzzzz
array_reg_ID_20:zzzzzzzzzzzzzzzzzzzzzzzzzzzzzzzz, array_reg_ID_21:zzzzzzzzzzzzzzzzzzzzzzzzzzzzzzzz, array_reg_ID_22:zzzzzzzzzzzzzzzzzzzzzzzzzzzzzzzz, array_reg_ID_23:zzzzzzzzzzzzzzzzzzzzzzzzzzzzzzzz
array_reg_ID_24:zzzzzzzzzzzzzzzzzzzzzzzzzzzzzzzz, array_reg_ID_25:zzzzzzzzzzzzzzzzzzzzzzzzzzzzzzzz, array_reg_ID_26:zzzzzzzzzzzzzzzzzzzzzzzzzzzzzzzz, array_reg_ID_27:zzzzzzzzzzzzzzzzzzzzzzzzzzzzzzzz
array_reg_ID_28:zzzzzzzzzzzzzzzzzzzzzzzzzzzzzzzz, array_reg_ID_29:zzzzzzzzzzzzzzzzzzzzzzzzzzzzzzzz, array_reg_ID_30:zzzzzzzzzzzzzzzzzzzzzzzzzzzzzzzz, array_reg_ID_31:zzzzzzzzzzzzzzzzzzzzzzzzzzzzzzzz
Time:                   95, PC: 020, Instruction: 00100100000101100000000000010110, ALU_A: 00000000000000000000000000000000, ALU_B:00000000000000000000000000010110, ALU_ans: 00000000000000000000000000010110, Op:001001, Func: 010110
Ext16_signed In:0000000000010110, Ext16_signed Out:00000000000000000000000000010110, Ext16_zero_out        22
RsC:zzzzz, RtC:zzzzz, RdC:zzzzz
array_reg_ID_0:zzzzzzzzzzzzzzzzzzzzzzzzzzzzzzzz, array_reg_ID_1:zzzzzzzzzzzzzzzzzzzzzzzzzzzzzzzz, array_reg_ID_2:zzzzzzzzzzzzzzzzzzzzzzzzzzzzzzzz, array_reg_ID_3:zzzzzzzzzzzzzzzzzzzzzzzzzzzzzzzz
array_reg_ID_4:zzzzzzzzzzzzzzzzzzzzzzzzzzzzzzzz, array_reg_ID_5:zzzzzzzzzzzzzzzzzzzzzzzzzzzzzzzz, array_reg_ID_6:zzzzzzzzzzzzzzzzzzzzzzzzzzzzzzzz, array_reg_ID_7:zzzzzzzzzzzzzzzzzzzzzzzzzzzzzzzz
array_reg_ID_8:zzzzzzzzzzzzzzzzzzzzzzzzzzzzzzzz, array_reg_ID_9:zzzzzzzzzzzzzzzzzzzzzzzzzzzzzzzz, array_reg_ID_10:zzzzzzzzzzzzzzzzzzzzzzzzzzzzzzzz, array_reg_ID_11:zzzzzzzzzzzzzzzzzzzzzzzzzzzzzzzz
