Computer_Organization_CPU_Design/Vivado/31CPU_new/31CPU_new.sim/sim_1/behav/xsim/simulate.log
Vivado Simulator 2018.1
Time resolution is 1 ps
WARNING: This core is supplied with a behavioral model. To model cycle-accurate behavior you must run timing simulation.
Time:                    5, PC: 00400000, Instruction: 00000000000000000000000000000000, ALU_A: 00000000000000000000000000000000, ALU_B:00000000000000000000000000000000, ALU_ans: 00000000000000000000000000000000, Op:000000, Func: 000000
Ext16_signed In:0000000000000000, Ext16_signed Out:00000000000000000000000000000000, Ext16_zero_out         0
RsC:00000, RtC:00000, RdC:00000
MUX_8_out: 00000000000000000000000000000000
reg_0:00000000000000000000000000000000, reg_1:00000000000000000000000000000000, reg_2:00000000000000000000000000000000, reg_3:00000000000000000000000000000000
reg_4:00000000000000000000000000000000, reg_5:00000000000000000000000000000000, reg_6:00000000000000000000000000000000, reg_7:00000000000000000000000000000000
reg_8:00000000000000000000000000000000, reg_9:00000000000000000000000000000000, reg_10:00000000000000000000000000000000, reg_11:00000000000000000000000000000000
reg_12:00000000000000000000000000000000, reg_13:00000000000000000000000000000000, reg_14:00000000000000000000000000000000, reg_15:00000000000000000000000000000000
reg_16:00000000000000000000000000000000, reg_17:00000000000000000000000000000000, reg_18:00000000000000000000000000000000, reg_19:00000000000000000000000000000000
reg_20:00000000000000000000000000000000, reg_21:00000000000000000000000000000000, reg_22:00000000000000000000000000000000, reg_23:00000000000000000000000000000000
reg_24:00000000000000000000000000000000, reg_25:00000000000000000000000000000000, reg_26:00000000000000000000000000000000, reg_27:00000000000000000000000000000000
reg_28:00000000000000000000000000000000, reg_29:00000000000000000000000000000000, reg_30:00000000000000000000000000000000, reg_31:00000000000000000000000000000000
Rd_data_out: 00000000000000000000000000000000
Time:                   15, PC: 00400000, Instruction: 00000000000000000000000000000000, ALU_A: 00000000000000000000000000000000, ALU_B:00000000000000000000000000000000, ALU_ans: 00000000000000000000000000000000, Op:000000, Func: 000000
Ext16_signed In:0000000000000000, Ext16_signed Out:00000000000000000000000000000000, Ext16_zero_out         0
RsC:00000, RtC:00000, RdC:00000
MUX_8_out: 00000000000000000000000000000000
reg_0:00000000000000000000000000000000, reg_1:00000000000000000000000000000000, reg_2:00000000000000000000000000000000, reg_3:00000000000000000000000000000000
reg_4:00000000000000000000000000000000, reg_5:00000000000000000000000000000000, reg_6:00000000000000000000000000000000, reg_7:00000000000000000000000000000000
reg_8:00000000000000000000000000000000, reg_9:00000000000000000000000000000000, reg_10:00000000000000000000000000000000, reg_11:00000000000000000000000000000000
reg_12:00000000000000000000000000000000, reg_13:00000000000000000000000000000000, reg_14:00000000000000000000000000000000, reg_15:00000000000000000000000000000000
reg_16:00000000000000000000000000000000, reg_17:00000000000000000000000000000000, reg_18:00000000000000000000000000000000, reg_19:00000000000000000000000000000000
reg_20:00000000000000000000000000000000, reg_21:00000000000000000000000000000000, reg_22:00000000000000000000000000000000, reg_23:00000000000000000000000000000000
reg_24:00000000000000000000000000000000, reg_25:00000000000000000000000000000000, reg_26:00000000000000000000000000000000, reg_27:00000000000000000000000000000000
reg_28:00000000000000000000000000000000, reg_29:00000000000000000000000000000000, reg_30:00000000000000000000000000000000, reg_31:00000000000000000000000000000000
Rd_data_out: 00000000000000000000000000000000
Time:                   25, PC: 00400001, Instruction: 00100100000000001111111111111111, ALU_A: 00000000000000000000000000000000, ALU_B:11111111111111111111111111111111, ALU_ans: 11111111111111111111111111111111, Op:001001, Func: 111111
Ext16_signed In:1111111111111111, Ext16_signed Out:11111111111111111111111111111111, Ext16_zero_out     65535
RsC:00000, RtC:00000, RdC:11111
MUX_8_out: 11111111111111111111111111111111
reg_0:00000000000000000000000000000000, reg_1:00000000000000000000000000000000, reg_2:00000000000000000000000000000000, reg_3:00000000000000000000000000000000
reg_4:00000000000000000000000000000000, reg_5:00000000000000000000000000000000, reg_6:00000000000000000000000000000000, reg_7:00000000000000000000000000000000
reg_8:00000000000000000000000000000000, reg_9:00000000000000000000000000000000, reg_10:00000000000000000000000000000000, reg_11:00000000000000000000000000000000
reg_12:00000000000000000000000000000000, reg_13:00000000000000000000000000000000, reg_14:00000000000000000000000000000000, reg_15:00000000000000000000000000000000
reg_16:00000000000000000000000000000000, reg_17:00000000000000000000000000000000, reg_18:00000000000000000000000000000000, reg_19:00000000000000000000000000000000
reg_20:00000000000000000000000000000000, reg_21:00000000000000000000000000000000, reg_22:00000000000000000000000000000000, reg_23:00000000000000000000000000000000
reg_24:00000000000000000000000000000000, reg_25:00000000000000000000000000000000, reg_26:00000000000000000000000000000000, reg_27:00000000000000000000000000000000
reg_28:00000000000000000000000000000000, reg_29:00000000000000000000000000000000, reg_30:00000000000000000000000000000000, reg_31:11111111111111111111111111111111
Rd_data_out: 11111111111111111111111111111111
Time:                   35, PC: 00400002, Instruction: 00100100000000010000000000000001, ALU_A: 00000000000000000000000000000000, ALU_B:00000000000000000000000000000001, ALU_ans: 00000000000000000000000000000001, Op:001001, Func: 000001
Ext16_signed In:0000000000000001, Ext16_signed Out:00000000000000000000000000000001, Ext16_zero_out         1
RsC:00000, RtC:00001, RdC:00000
MUX_8_out: 00000000000000000000000000000001
reg_0:00000000000000000000000000000000, reg_1:00000000000000000000000000000001, reg_2:00000000000000000000000000000000, reg_3:00000000000000000000000000000000
reg_4:00000000000000000000000000000000, reg_5:00000000000000000000000000000000, reg_6:00000000000000000000000000000000, reg_7:00000000000000000000000000000000
reg_8:00000000000000000000000000000000, reg_9:00000000000000000000000000000000, reg_10:00000000000000000000000000000000, reg_11:00000000000000000000000000000000
reg_12:00000000000000000000000000000000, reg_13:00000000000000000000000000000000, reg_14:00000000000000000000000000000000, reg_15:00000000000000000000000000000000
reg_16:00000000000000000000000000000000, reg_17:00000000000000000000000000000000, reg_18:00000000000000000000000000000000, reg_19:00000000000000000000000000000000
reg_20:00000000000000000000000000000000, reg_21:00000000000000000000000000000000, reg_22:00000000000000000000000000000000, reg_23:00000000000000000000000000000000
reg_24:00000000000000000000000000000000, reg_25:00000000000000000000000000000000, reg_26:00000000000000000000000000000000, reg_27:00000000000000000000000000000000
reg_28:00000000000000000000000000000000, reg_29:00000000000000000000000000000000, reg_30:00000000000000000000000000000000, reg_31:11111111111111111111111111111111
Rd_data_out: 00000000000000000000000000000001
Time:                   45, PC: 00400003, Instruction: 00100100000000101000000000000000, ALU_A: 00000000000000000000000000000000, ALU_B:11111111111111111000000000000000, ALU_ans: 11111111111111111000000000000000, Op:001001, Func: 000000
Ext16_signed In:1000000000000000, Ext16_signed Out:11111111111111111000000000000000, Ext16_zero_out     32768
RsC:00000, RtC:00010, RdC:10000
MUX_8_out: 11111111111111111000000000000000
reg_0:00000000000000000000000000000000, reg_1:00000000000000000000000000000001, reg_2:00000000000000000000000000000000, reg_3:00000000000000000000000000000000
reg_4:00000000000000000000000000000000, reg_5:00000000000000000000000000000000, reg_6:00000000000000000000000000000000, reg_7:00000000000000000000000000000000
reg_8:00000000000000000000000000000000, reg_9:00000000000000000000000000000000, reg_10:00000000000000000000000000000000, reg_11:00000000000000000000000000000000
reg_12:00000000000000000000000000000000, reg_13:00000000000000000000000000000000, reg_14:00000000000000000000000000000000, reg_15:00000000000000000000000000000000
reg_16:11111111111111111000000000000000, reg_17:00000000000000000000000000000000, reg_18:00000000000000000000000000000000, reg_19:00000000000000000000000000000000
reg_20:00000000000000000000000000000000, reg_21:00000000000000000000000000000000, reg_22:00000000000000000000000000000000, reg_23:00000000000000000000000000000000
reg_24:00000000000000000000000000000000, reg_25:00000000000000000000000000000000, reg_26:00000000000000000000000000000000, reg_27:00000000000000000000000000000000
reg_28:00000000000000000000000000000000, reg_29:00000000000000000000000000000000, reg_30:00000000000000000000000000000000, reg_31:11111111111111111111111111111111
Rd_data_out: 11111111111111111000000000000000
Time:                   55, PC: 00400004, Instruction: 00100100000000110111111111111111, ALU_A: 00000000000000000000000000000000, ALU_B:00000000000000000111111111111111, ALU_ans: 00000000000000000111111111111111, Op:001001, Func: 111111
Ext16_signed In:0111111111111111, Ext16_signed Out:00000000000000000111111111111111, Ext16_zero_out     32767
RsC:00000, RtC:00011, RdC:01111
MUX_8_out: 00000000000000000111111111111111
reg_0:00000000000000000000000000000000, reg_1:00000000000000000000000000000001, reg_2:00000000000000000000000000000000, reg_3:00000000000000000000000000000000
reg_4:00000000000000000000000000000000, reg_5:00000000000000000000000000000000, reg_6:00000000000000000000000000000000, reg_7:00000000000000000000000000000000
reg_8:00000000000000000000000000000000, reg_9:00000000000000000000000000000000, reg_10:00000000000000000000000000000000, reg_11:00000000000000000000000000000000
reg_12:00000000000000000000000000000000, reg_13:00000000000000000000000000000000, reg_14:00000000000000000000000000000000, reg_15:00000000000000000111111111111111
reg_16:11111111111111111000000000000000, reg_17:00000000000000000000000000000000, reg_18:00000000000000000000000000000000, reg_19:00000000000000000000000000000000
reg_20:00000000000000000000000000000000, reg_21:00000000000000000000000000000000, reg_22:00000000000000000000000000000000, reg_23:00000000000000000000000000000000
reg_24:00000000000000000000000000000000, reg_25:00000000000000000000000000000000, reg_26:00000000000000000000000000000000, reg_27:00000000000000000000000000000000
reg_28:00000000000000000000000000000000, reg_29:00000000000000000000000000000000, reg_30:00000000000000000000000000000000, reg_31:11111111111111111111111111111111
Rd_data_out: 00000000000000000111111111111111
Time:                   65, PC: 00400005, Instruction: 00100100001001001111111111111111, ALU_A: 00000000000000000000000000000001, ALU_B:11111111111111111111111111111111, ALU_ans: 00000000000000000000000000000000, Op:001001, Func: 111111
Ext16_signed In:1111111111111111, Ext16_signed Out:11111111111111111111111111111111, Ext16_zero_out     65535
RsC:00001, RtC:00100, RdC:11111
MUX_8_out: 11111111111111111111111111111111
reg_0:00000000000000000000000000000000, reg_1:00000000000000000000000000000001, reg_2:00000000000000000000000000000000, reg_3:00000000000000000000000000000000
reg_4:00000000000000000000000000000000, reg_5:00000000000000000000000000000000, reg_6:00000000000000000000000000000000, reg_7:00000000000000000000000000000000
reg_8:00000000000000000000000000000000, reg_9:00000000000000000000000000000000, reg_10:00000000000000000000000000000000, reg_11:00000000000000000000000000000000
reg_12:00000000000000000000000000000000, reg_13:00000000000000000000000000000000, reg_14:00000000000000000000000000000000, reg_15:00000000000000000111111111111111
reg_16:11111111111111111000000000000000, reg_17:00000000000000000000000000000000, reg_18:00000000000000000000000000000000, reg_19:00000000000000000000000000000000
reg_20:00000000000000000000000000000000, reg_21:00000000000000000000000000000000, reg_22:00000000000000000000000000000000, reg_23:00000000000000000000000000000000
reg_24:00000000000000000000000000000000, reg_25:00000000000000000000000000000000, reg_26:00000000000000000000000000000000, reg_27:00000000000000000000000000000000
reg_28:00000000000000000000000000000000, reg_29:00000000000000000000000000000000, reg_30:00000000000000000000000000000000, reg_31:00000000000000000000000000000000
Rd_data_out: 00000000000000000000000000000000
Time:                   75, PC: 00400006, Instruction: 00100100010001011111111111111111, ALU_A: 00000000000000000000000000000000, ALU_B:11111111111111111111111111111111, ALU_ans: 11111111111111111111111111111111, Op:001001, Func: 111111
Ext16_signed In:1111111111111111, Ext16_signed Out:11111111111111111111111111111111, Ext16_zero_out     65535
RsC:00010, RtC:00101, RdC:11111
MUX_8_out: 11111111111111111111111111111111
reg_0:00000000000000000000000000000000, reg_1:00000000000000000000000000000001, reg_2:00000000000000000000000000000000, reg_3:00000000000000000000000000000000
reg_4:00000000000000000000000000000000, reg_5:00000000000000000000000000000000, reg_6:00000000000000000000000000000000, reg_7:00000000000000000000000000000000
reg_8:00000000000000000000000000000000, reg_9:00000000000000000000000000000000, reg_10:00000000000000000000000000000000, reg_11:00000000000000000000000000000000
reg_12:00000000000000000000000000000000, reg_13:00000000000000000000000000000000, reg_14:00000000000000000000000000000000, reg_15:00000000000000000111111111111111
reg_16:11111111111111111000000000000000, reg_17:00000000000000000000000000000000, reg_18:00000000000000000000000000000000, reg_19:00000000000000000000000000000000
reg_20:00000000000000000000000000000000, reg_21:00000000000000000000000000000000, reg_22:00000000000000000000000000000000, reg_23:00000000000000000000000000000000
reg_24:00000000000000000000000000000000, reg_25:00000000000000000000000000000000, reg_26:00000000000000000000000000000000, reg_27:00000000000000000000000000000000
reg_28:00000000000000000000000000000000, reg_29:00000000000000000000000000000000, reg_30:00000000000000000000000000000000, reg_31:11111111111111111111111111111111
Rd_data_out: 11111111111111111111111111111111
Time:                   85, PC: 00400007, Instruction: 00100100011001100000000000000110, ALU_A: 00000000000000000000000000000000, ALU_B:00000000000000000000000000000110, ALU_ans: 00000000000000000000000000000110, Op:001001, Func: 000110
Ext16_signed In:0000000000000110, Ext16_signed Out:00000000000000000000000000000110, Ext16_zero_out         6
RsC:00011, RtC:00110, RdC:00000
MUX_8_out: 00000000000000000000000000000110
reg_0:00000000000000000000000000000000, reg_1:00000000000000000000000000000001, reg_2:00000000000000000000000000000000, reg_3:00000000000000000000000000000000
reg_4:00000000000000000000000000000000, reg_5:00000000000000000000000000000000, reg_6:00000000000000000000000000000110, reg_7:00000000000000000000000000000000
reg_8:00000000000000000000000000000000, reg_9:00000000000000000000000000000000, reg_10:00000000000000000000000000000000, reg_11:00000000000000000000000000000000
reg_12:00000000000000000000000000000000, reg_13:00000000000000000000000000000000, reg_14:00000000000000000000000000000000, reg_15:00000000000000000111111111111111
reg_16:11111111111111111000000000000000, reg_17:00000000000000000000000000000000, reg_18:00000000000000000000000000000000, reg_19:00000000000000000000000000000000
reg_20:00000000000000000000000000000000, reg_21:00000000000000000000000000000000, reg_22:00000000000000000000000000000000, reg_23:00000000000000000000000000000000
reg_24:00000000000000000000000000000000, reg_25:00000000000000000000000000000000, reg_26:00000000000000000000000000000000, reg_27:00000000000000000000000000000000
reg_28:00000000000000000000000000000000, reg_29:00000000000000000000000000000000, reg_30:00000000000000000000000000000000, reg_31:11111111111111111111111111111111
Rd_data_out: 00000000000000000000000000000110
Time:                   95, PC: 00400008, Instruction: 00100100000001110000000000001111, ALU_A: 00000000000000000000000000000000, ALU_B:00000000000000000000000000001111, ALU_ans: 00000000000000000000000000001111, Op:001001, Func: 001111
Ext16_signed In:0000000000001111, Ext16_signed Out:00000000000000000000000000001111, Ext16_zero_out        15
RsC:00000, RtC:00111, RdC:00000
MUX_8_out: 00000000000000000000000000001111
reg_0:00000000000000000000000000000000, reg_1:00000000000000000000000000000001, reg_2:00000000000000000000000000000000, reg_3:00000000000000000000000000000000
reg_4:00000000000000000000000000000000, reg_5:00000000000000000000000000000000, reg_6:00000000000000000000000000000110, reg_7:00000000000000000000000000001111
reg_8:00000000000000000000000000000000, reg_9:00000000000000000000000000000000, reg_10:00000000000000000000000000000000, reg_11:00000000000000000000000000000000
reg_12:00000000000000000000000000000000, reg_13:00000000000000000000000000000000, reg_14:00000000000000000000000000000000, reg_15:00000000000000000111111111111111
reg_16:11111111111111111000000000000000, reg_17:00000000000000000000000000000000, reg_18:00000000000000000000000000000000, reg_19:00000000000000000000000000000000
reg_20:00000000000000000000000000000000, reg_21:00000000000000000000000000000000, reg_22:00000000000000000000000000000000, reg_23:00000000000000000000000000000000
reg_24:00000000000000000000000000000000, reg_25:00000000000000000000000000000000, reg_26:00000000000000000000000000000000, reg_27:00000000000000000000000000000000
reg_28:00000000000000000000000000000000, reg_29:00000000000000000000000000000000, reg_30:00000000000000000000000000000000, reg_31:11111111111111111111111111111111
Rd_data_out: 00000000000000000000000000001111
Time:                  105, PC: 00400009, Instruction: 00100100000010000000000011110000, ALU_A: 00000000000000000000000000000000, ALU_B:00000000000000000000000011110000, ALU_ans: 00000000000000000000000011110000, Op:001001, Func: 110000
Ext16_signed In:0000000011110000, Ext16_signed Out:00000000000000000000000011110000, Ext16_zero_out       240
RsC:00000, RtC:01000, RdC:00000
MUX_8_out: 00000000000000000000000011110000
reg_0:00000000000000000000000000000000, reg_1:00000000000000000000000000000001, reg_2:00000000000000000000000000000000, reg_3:00000000000000000000000000000000
reg_4:00000000000000000000000000000000, reg_5:00000000000000000000000000000000, reg_6:00000000000000000000000000000110, reg_7:00000000000000000000000000001111
reg_8:00000000000000000000000011110000, reg_9:00000000000000000000000000000000, reg_10:00000000000000000000000000000000, reg_11:00000000000000000000000000000000
reg_12:00000000000000000000000000000000, reg_13:00000000000000000000000000000000, reg_14:00000000000000000000000000000000, reg_15:00000000000000000111111111111111
reg_16:11111111111111111000000000000000, reg_17:00000000000000000000000000000000, reg_18:00000000000000000000000000000000, reg_19:00000000000000000000000000000000
reg_20:00000000000000000000000000000000, reg_21:00000000000000000000000000000000, reg_22:00000000000000000000000000000000, reg_23:00000000000000000000000000000000
reg_24:00000000000000000000000000000000, reg_25:00000000000000000000000000000000, reg_26:00000000000000000000000000000000, reg_27:00000000000000000000000000000000
reg_28:00000000000000000000000000000000, reg_29:00000000000000000000000000000000, reg_30:00000000000000000000000000000000, reg_31:11111111111111111111111111111111
Rd_data_out: 00000000000000000000000011110000
Time:                  115, PC: 0040000a, Instruction: 00100100000010010000111100000000, ALU_A: 00000000000000000000000000000000, ALU_B:00000000000000000000111100000000, ALU_ans: 00000000000000000000111100000000, Op:001001, Func: 000000
Ext16_signed In:0000111100000000, Ext16_signed Out:00000000000000000000111100000000, Ext16_zero_out      3840
RsC:00000, RtC:01001, RdC:00001
MUX_8_out: 00000000000000000000111100000000
reg_0:00000000000000000000000000000000, reg_1:00000000000000000000111100000000, reg_2:00000000000000000000000000000000, reg_3:00000000000000000000000000000000
reg_4:00000000000000000000000000000000, reg_5:00000000000000000000000000000000, reg_6:00000000000000000000000000000110, reg_7:00000000000000000000000000001111
reg_8:00000000000000000000000011110000, reg_9:00000000000000000000000000000000, reg_10:00000000000000000000000000000000, reg_11:00000000000000000000000000000000
reg_12:00000000000000000000000000000000, reg_13:00000000000000000000000000000000, reg_14:00000000000000000000000000000000, reg_15:00000000000000000111111111111111
reg_16:11111111111111111000000000000000, reg_17:00000000000000000000000000000000, reg_18:00000000000000000000000000000000, reg_19:00000000000000000000000000000000
reg_20:00000000000000000000000000000000, reg_21:00000000000000000000000000000000, reg_22:00000000000000000000000000000000, reg_23:00000000000000000000000000000000
reg_24:00000000000000000000000000000000, reg_25:00000000000000000000000000000000, reg_26:00000000000000000000000000000000, reg_27:00000000000000000000000000000000
reg_28:00000000000000000000000000000000, reg_29:00000000000000000000000000000000, reg_30:00000000000000000000000000000000, reg_31:11111111111111111111111111111111
Rd_data_out: 00000000000000000000111100000000
Time:                  125, PC: 0040000b, Instruction: 00100100000010101111000000000000, ALU_A: 00000000000000000000000000000000, ALU_B:11111111111111111111000000000000, ALU_ans: 11111111111111111111000000000000, Op:001001, Func: 000000
Ext16_signed In:1111000000000000, Ext16_signed Out:11111111111111111111000000000000, Ext16_zero_out     61440
RsC:00000, RtC:01010, RdC:11110
MUX_8_out: 11111111111111111111000000000000
reg_0:00000000000000000000000000000000, reg_1:00000000000000000000111100000000, reg_2:00000000000000000000000000000000, reg_3:00000000000000000000000000000000
reg_4:00000000000000000000000000000000, reg_5:00000000000000000000000000000000, reg_6:00000000000000000000000000000110, reg_7:00000000000000000000000000001111
reg_8:00000000000000000000000011110000, reg_9:00000000000000000000000000000000, reg_10:00000000000000000000000000000000, reg_11:00000000000000000000000000000000
reg_12:00000000000000000000000000000000, reg_13:00000000000000000000000000000000, reg_14:00000000000000000000000000000000, reg_15:00000000000000000111111111111111
reg_16:11111111111111111000000000000000, reg_17:00000000000000000000000000000000, reg_18:00000000000000000000000000000000, reg_19:00000000000000000000000000000000
reg_20:00000000000000000000000000000000, reg_21:00000000000000000000000000000000, reg_22:00000000000000000000000000000000, reg_23:00000000000000000000000000000000
reg_24:00000000000000000000000000000000, reg_25:00000000000000000000000000000000, reg_26:00000000000000000000000000000000, reg_27:00000000000000000000000000000000
reg_28:00000000000000000000000000000000, reg_29:00000000000000000000000000000000, reg_30:11111111111111111111000000000000, reg_31:11111111111111111111111111111111
Rd_data_out: 11111111111111111111000000000000
Time:                  135, PC: 0040000c, Instruction: 00100100000001110000000000001111, ALU_A: 00000000000000000000000000000000, ALU_B:00000000000000000000000000001111, ALU_ans: 00000000000000000000000000001111, Op:001001, Func: 001111
Ext16_signed In:0000000000001111, Ext16_signed Out:00000000000000000000000000001111, Ext16_zero_out        15
RsC:00000, RtC:00111, RdC:00000
MUX_8_out: 00000000000000000000000000001111
reg_0:00000000000000000000000000000000, reg_1:00000000000000000000111100000000, reg_2:00000000000000000000000000000000, reg_3:00000000000000000000000000000000
reg_4:00000000000000000000000000000000, reg_5:00000000000000000000000000000000, reg_6:00000000000000000000000000000110, reg_7:00000000000000000000000000001111
reg_8:00000000000000000000000011110000, reg_9:00000000000000000000000000000000, reg_10:00000000000000000000000000000000, reg_11:00000000000000000000000000000000
reg_12:00000000000000000000000000000000, reg_13:00000000000000000000000000000000, reg_14:00000000000000000000000000000000, reg_15:00000000000000000111111111111111
reg_16:11111111111111111000000000000000, reg_17:00000000000000000000000000000000, reg_18:00000000000000000000000000000000, reg_19:00000000000000000000000000000000
reg_20:00000000000000000000000000000000, reg_21:00000000000000000000000000000000, reg_22:00000000000000000000000000000000, reg_23:00000000000000000000000000000000
reg_24:00000000000000000000000000000000, reg_25:00000000000000000000000000000000, reg_26:00000000000000000000000000000000, reg_27:00000000000000000000000000000000
reg_28:00000000000000000000000000000000, reg_29:00000000000000000000000000000000, reg_30:11111111111111111111000000000000, reg_31:11111111111111111111111111111111
Rd_data_out: 00000000000000000000000000001111
Time:                  145, PC: 0040000d, Instruction: 00100100000010000000000011110000, ALU_A: 00000000000000000000000000000000, ALU_B:00000000000000000000000011110000, ALU_ans: 00000000000000000000000011110000, Op:001001, Func: 110000
Ext16_signed In:0000000011110000, Ext16_signed Out:00000000000000000000000011110000, Ext16_zero_out       240
RsC:00000, RtC:01000, RdC:00000
MUX_8_out: 00000000000000000000000011110000
reg_0:00000000000000000000000000000000, reg_1:00000000000000000000111100000000, reg_2:00000000000000000000000000000000, reg_3:00000000000000000000000000000000
reg_4:00000000000000000000000000000000, reg_5:00000000000000000000000000000000, reg_6:00000000000000000000000000000110, reg_7:00000000000000000000000000001111
reg_8:00000000000000000000000011110000, reg_9:00000000000000000000000000000000, reg_10:00000000000000000000000000000000, reg_11:00000000000000000000000000000000
reg_12:00000000000000000000000000000000, reg_13:00000000000000000000000000000000, reg_14:00000000000000000000000000000000, reg_15:00000000000000000111111111111111
reg_16:11111111111111111000000000000000, reg_17:00000000000000000000000000000000, reg_18:00000000000000000000000000000000, reg_19:00000000000000000000000000000000
reg_20:00000000000000000000000000000000, reg_21:00000000000000000000000000000000, reg_22:00000000000000000000000000000000, reg_23:00000000000000000000000000000000
reg_24:00000000000000000000000000000000, reg_25:00000000000000000000000000000000, reg_26:00000000000000000000000000000000, reg_27:00000000000000000000000000000000
reg_28:00000000000000000000000000000000, reg_29:00000000000000000000000000000000, reg_30:11111111111111111111000000000000, reg_31:11111111111111111111111111111111
Rd_data_out: 00000000000000000000000011110000
Time:                  155, PC: 0040000e, Instruction: 00100100000010010000111100000000, ALU_A: 00000000000000000000000000000000, ALU_B:00000000000000000000111100000000, ALU_ans: 00000000000000000000111100000000, Op:001001, Func: 000000
Ext16_signed In:0000111100000000, Ext16_signed Out:00000000000000000000111100000000, Ext16_zero_out      3840
RsC:00000, RtC:01001, RdC:00001
MUX_8_out: 00000000000000000000111100000000
reg_0:00000000000000000000000000000000, reg_1:00000000000000000000111100000000, reg_2:00000000000000000000000000000000, reg_3:00000000000000000000000000000000
reg_4:00000000000000000000000000000000, reg_5:00000000000000000000000000000000, reg_6:00000000000000000000000000000110, reg_7:00000000000000000000000000001111
reg_8:00000000000000000000000011110000, reg_9:00000000000000000000000000000000, reg_10:00000000000000000000000000000000, reg_11:00000000000000000000000000000000
reg_12:00000000000000000000000000000000, reg_13:00000000000000000000000000000000, reg_14:00000000000000000000000000000000, reg_15:00000000000000000111111111111111
reg_16:11111111111111111000000000000000, reg_17:00000000000000000000000000000000, reg_18:00000000000000000000000000000000, reg_19:00000000000000000000000000000000
reg_20:00000000000000000000000000000000, reg_21:00000000000000000000000000000000, reg_22:00000000000000000000000000000000, reg_23:00000000000000000000000000000000
reg_24:00000000000000000000000000000000, reg_25:00000000000000000000000000000000, reg_26:00000000000000000000000000000000, reg_27:00000000000000000000000000000000
reg_28:00000000000000000000000000000000, reg_29:00000000000000000000000000000000, reg_30:11111111111111111111000000000000, reg_31:11111111111111111111111111111111
Rd_data_out: 00000000000000000000111100000000
Time:                  165, PC: 0040000f, Instruction: 00100100000010101111000000000000, ALU_A: 00000000000000000000000000000000, ALU_B:11111111111111111111000000000000, ALU_ans: 11111111111111111111000000000000, Op:001001, Func: 000000
Ext16_signed In:1111000000000000, Ext16_signed Out:11111111111111111111000000000000, Ext16_zero_out     61440
RsC:00000, RtC:01010, RdC:11110
MUX_8_out: 11111111111111111111000000000000
reg_0:00000000000000000000000000000000, reg_1:00000000000000000000111100000000, reg_2:00000000000000000000000000000000, reg_3:00000000000000000000000000000000
reg_4:00000000000000000000000000000000, reg_5:00000000000000000000000000000000, reg_6:00000000000000000000000000000110, reg_7:00000000000000000000000000001111
reg_8:00000000000000000000000011110000, reg_9:00000000000000000000000000000000, reg_10:00000000000000000000000000000000, reg_11:00000000000000000000000000000000
reg_12:00000000000000000000000000000000, reg_13:00000000000000000000000000000000, reg_14:00000000000000000000000000000000, reg_15:00000000000000000111111111111111
reg_16:11111111111111111000000000000000, reg_17:00000000000000000000000000000000, reg_18:00000000000000000000000000000000, reg_19:00000000000000000000000000000000
reg_20:00000000000000000000000000000000, reg_21:00000000000000000000000000000000, reg_22:00000000000000000000000000000000, reg_23:00000000000000000000000000000000
reg_24:00000000000000000000000000000000, reg_25:00000000000000000000000000000000, reg_26:00000000000000000000000000000000, reg_27:00000000000000000000000000000000
reg_28:00000000000000000000000000000000, reg_29:00000000000000000000000000000000, reg_30:11111111111111111111000000000000, reg_31:11111111111111111111111111111111
Rd_data_out: 11111111111111111111000000000000
Time:                  175, PC: 00400010, Instruction: 00100100000010110101010101010101, ALU_A: 00000000000000000000000000000000, ALU_B:00000000000000000101010101010101, ALU_ans: 00000000000000000101010101010101, Op:001001, Func: 010101
Ext16_signed In:0101010101010101, Ext16_signed Out:00000000000000000101010101010101, Ext16_zero_out     21845
RsC:00000, RtC:01011, RdC:01010
MUX_8_out: 00000000000000000101010101010101
reg_0:00000000000000000000000000000000, reg_1:00000000000000000000111100000000, reg_2:00000000000000000000000000000000, reg_3:00000000000000000000000000000000
reg_4:00000000000000000000000000000000, reg_5:00000000000000000000000000000000, reg_6:00000000000000000000000000000110, reg_7:00000000000000000000000000001111
reg_8:00000000000000000000000011110000, reg_9:00000000000000000000000000000000, reg_10:00000000000000000101010101010101, reg_11:00000000000000000000000000000000
reg_12:00000000000000000000000000000000, reg_13:00000000000000000000000000000000, reg_14:00000000000000000000000000000000, reg_15:00000000000000000111111111111111
reg_16:11111111111111111000000000000000, reg_17:00000000000000000000000000000000, reg_18:00000000000000000000000000000000, reg_19:00000000000000000000000000000000
reg_20:00000000000000000000000000000000, reg_21:00000000000000000000000000000000, reg_22:00000000000000000000000000000000, reg_23:00000000000000000000000000000000
reg_24:00000000000000000000000000000000, reg_25:00000000000000000000000000000000, reg_26:00000000000000000000000000000000, reg_27:00000000000000000000000000000000
reg_28:00000000000000000000000000000000, reg_29:00000000000000000000000000000000, reg_30:11111111111111111111000000000000, reg_31:11111111111111111111111111111111
Rd_data_out: 00000000000000000101010101010101
Time:                  185, PC: 00400011, Instruction: 00100100000011001010101010101010, ALU_A: 00000000000000000000000000000000, ALU_B:11111111111111111010101010101010, ALU_ans: 11111111111111111010101010101010, Op:001001, Func: 101010
Ext16_signed In:1010101010101010, Ext16_signed Out:11111111111111111010101010101010, Ext16_zero_out     43690
RsC:00000, RtC:01100, RdC:10101
MUX_8_out: 11111111111111111010101010101010
reg_0:00000000000000000000000000000000, reg_1:00000000000000000000111100000000, reg_2:00000000000000000000000000000000, reg_3:00000000000000000000000000000000
reg_4:00000000000000000000000000000000, reg_5:00000000000000000000000000000000, reg_6:00000000000000000000000000000110, reg_7:00000000000000000000000000001111
reg_8:00000000000000000000000011110000, reg_9:00000000000000000000000000000000, reg_10:00000000000000000101010101010101, reg_11:00000000000000000000000000000000
reg_12:00000000000000000000000000000000, reg_13:00000000000000000000000000000000, reg_14:00000000000000000000000000000000, reg_15:00000000000000000111111111111111
reg_16:11111111111111111000000000000000, reg_17:00000000000000000000000000000000, reg_18:00000000000000000000000000000000, reg_19:00000000000000000000000000000000
reg_20:00000000000000000000000000000000, reg_21:11111111111111111010101010101010, reg_22:00000000000000000000000000000000, reg_23:00000000000000000000000000000000
reg_24:00000000000000000000000000000000, reg_25:00000000000000000000000000000000, reg_26:00000000000000000000000000000000, reg_27:00000000000000000000000000000000
reg_28:00000000000000000000000000000000, reg_29:00000000000000000000000000000000, reg_30:11111111111111111111000000000000, reg_31:11111111111111111111111111111111
Rd_data_out: 11111111111111111010101010101010
Time:                  195, PC: 00400012, Instruction: 00100101011010110101010101010101, ALU_A: 00000000000000000000000000000000, ALU_B:00000000000000000101010101010101, ALU_ans: 00000000000000000101010101010101, Op:001001, Func: 010101
Ext16_signed In:0101010101010101, Ext16_signed Out:00000000000000000101010101010101, Ext16_zero_out     21845
RsC:01011, RtC:01011, RdC:01010
MUX_8_out: 00000000000000000101010101010101
reg_0:00000000000000000000000000000000, reg_1:00000000000000000000111100000000, reg_2:00000000000000000000000000000000, reg_3:00000000000000000000000000000000
reg_4:00000000000000000000000000000000, reg_5:00000000000000000000000000000000, reg_6:00000000000000000000000000000110, reg_7:00000000000000000000000000001111
reg_8:00000000000000000000000011110000, reg_9:00000000000000000000000000000000, reg_10:00000000000000000101010101010101, reg_11:00000000000000000000000000000000
