Computer_Organization_CPU_Design/Vivado/31CPU_new/31CPU_new.sim/sim_1/behav/xsim/simulate.log
Vivado Simulator 2018.1
Time resolution is 1 ps
WARNING: This core is supplied with a behavioral model. To model cycle-accurate behavior you must run timing simulation.
Time:                    5, PC: 00400000, Instruction: 00000000000000000000000000000000, ALU_A: 00000000000000000000000000000000, ALU_B:00000000000000000000000000000000, ALU_ans: 00000000000000000000000000000000, Op:000000, Func: 000000
Ext16_signed In:0000000000000000, Ext16_signed Out:00000000000000000000000000000000, Ext16_zero_out         0
RsC:00000, RtC:00000, RdC:00000
MUX_8_out: 00000000000000000000000000000000
reg_0:00000000000000000000000000000000, reg_1:00000000000000000000000000000000, reg_2:00000000000000000000000000000000, reg_3:00000000000000000000000000000000
reg_4:00000000000000000000000000000000, reg_5:00000000000000000000000000000000, reg_6:00000000000000000000000000000000, reg_7:00000000000000000000000000000000
reg_8:00000000000000000000000000000000, reg_9:00000000000000000000000000000000, reg_10:00000000000000000000000000000000, reg_11:00000000000000000000000000000000
reg_12:00000000000000000000000000000000, reg_13:00000000000000000000000000000000, reg_14:00000000000000000000000000000000, reg_15:00000000000000000000000000000000
reg_16:00000000000000000000000000000000, reg_17:00000000000000000000000000000000, reg_18:00000000000000000000000000000000, reg_19:00000000000000000000000000000000
reg_20:00000000000000000000000000000000, reg_21:00000000000000000000000000000000, reg_22:00000000000000000000000000000000, reg_23:00000000000000000000000000000000
reg_24:00000000000000000000000000000000, reg_25:00000000000000000000000000000000, reg_26:00000000000000000000000000000000, reg_27:00000000000000000000000000000000
reg_28:00000000000000000000000000000000, reg_29:00000000000000000000000000000000, reg_30:00000000000000000000000000000000, reg_31:00000000000000000000000000000000
Rd_data_out: 00000000000000000000000000000000
Time:                   15, PC: 00400000, Instruction: 00000000000000000000000000000000, ALU_A: 00000000000000000000000000000000, ALU_B:00000000000000000000000000000000, ALU_ans: 00000000000000000000000000000000, Op:000000, Func: 000000
Ext16_signed In:0000000000000000, Ext16_signed Out:00000000000000000000000000000000, Ext16_zero_out         0
RsC:00000, RtC:00000, RdC:00000
MUX_8_out: 00000000000000000000000000000000
reg_0:00000000000000000000000000000000, reg_1:00000000000000000000000000000000, reg_2:00000000000000000000000000000000, reg_3:00000000000000000000000000000000
reg_4:00000000000000000000000000000000, reg_5:00000000000000000000000000000000, reg_6:00000000000000000000000000000000, reg_7:00000000000000000000000000000000
reg_8:00000000000000000000000000000000, reg_9:00000000000000000000000000000000, reg_10:00000000000000000000000000000000, reg_11:00000000000000000000000000000000
reg_12:00000000000000000000000000000000, reg_13:00000000000000000000000000000000, reg_14:00000000000000000000000000000000, reg_15:00000000000000000000000000000000
reg_16:00000000000000000000000000000000, reg_17:00000000000000000000000000000000, reg_18:00000000000000000000000000000000, reg_19:00000000000000000000000000000000
reg_20:00000000000000000000000000000000, reg_21:00000000000000000000000000000000, reg_22:00000000000000000000000000000000, reg_23:00000000000000000000000000000000
reg_24:00000000000000000000000000000000, reg_25:00000000000000000000000000000000, reg_26:00000000000000000000000000000000, reg_27:00000000000000000000000000000000
reg_28:00000000000000000000000000000000, reg_29:00000000000000000000000000000000, reg_30:00000000000000000000000000000000, reg_31:00000000000000000000000000000000
Rd_data_out: 00000000000000000000000000000000
Time:                   25, PC: 00400001, Instruction: 00111100000000000000000000000000, ALU_A: 00000000000000000000000000000000, ALU_B:00000000000000000000000000000000, ALU_ans: 00000000000000000000000000000000, Op:001111, Func: 000000
Ext16_signed In:0000000000000000, Ext16_signed Out:00000000000000000000000000000000, Ext16_zero_out         0
RsC:00000, RtC:00000, RdC:00000
MUX_8_out: 00000000000000000000000000000000
reg_0:00000000000000000000000000000000, reg_1:00000000000000000000000000000000, reg_2:00000000000000000000000000000000, reg_3:00000000000000000000000000000000
reg_4:00000000000000000000000000000000, reg_5:00000000000000000000000000000000, reg_6:00000000000000000000000000000000, reg_7:00000000000000000000000000000000
reg_8:00000000000000000000000000000000, reg_9:00000000000000000000000000000000, reg_10:00000000000000000000000000000000, reg_11:00000000000000000000000000000000
reg_12:00000000000000000000000000000000, reg_13:00000000000000000000000000000000, reg_14:00000000000000000000000000000000, reg_15:00000000000000000000000000000000
reg_16:00000000000000000000000000000000, reg_17:00000000000000000000000000000000, reg_18:00000000000000000000000000000000, reg_19:00000000000000000000000000000000
reg_20:00000000000000000000000000000000, reg_21:00000000000000000000000000000000, reg_22:00000000000000000000000000000000, reg_23:00000000000000000000000000000000
reg_24:00000000000000000000000000000000, reg_25:00000000000000000000000000000000, reg_26:00000000000000000000000000000000, reg_27:00000000000000000000000000000000
reg_28:00000000000000000000000000000000, reg_29:00000000000000000000000000000000, reg_30:00000000000000000000000000000000, reg_31:00000000000000000000000000000000
Rd_data_out: 00000000000000000000000000000000
Time:                   35, PC: 00400002, Instruction: 00111100000000010000000000000001, ALU_A: 00000000000000000000000000000000, ALU_B:00000000000000000000000000000001, ALU_ans: 00000000000000010000000000000000, Op:001111, Func: 000001
Ext16_signed In:0000000000000001, Ext16_signed Out:00000000000000000000000000000001, Ext16_zero_out         1
RsC:00000, RtC:00001, RdC:00000
MUX_8_out: 00000000000000000000000000000001
reg_0:00000000000000000000000000000000, reg_1:00000000000000010000000000000000, reg_2:00000000000000000000000000000000, reg_3:00000000000000000000000000000000
reg_4:00000000000000000000000000000000, reg_5:00000000000000000000000000000000, reg_6:00000000000000000000000000000000, reg_7:00000000000000000000000000000000
reg_8:00000000000000000000000000000000, reg_9:00000000000000000000000000000000, reg_10:00000000000000000000000000000000, reg_11:00000000000000000000000000000000
reg_12:00000000000000000000000000000000, reg_13:00000000000000000000000000000000, reg_14:00000000000000000000000000000000, reg_15:00000000000000000000000000000000
reg_16:00000000000000000000000000000000, reg_17:00000000000000000000000000000000, reg_18:00000000000000000000000000000000, reg_19:00000000000000000000000000000000
reg_20:00000000000000000000000000000000, reg_21:00000000000000000000000000000000, reg_22:00000000000000000000000000000000, reg_23:00000000000000000000000000000000
reg_24:00000000000000000000000000000000, reg_25:00000000000000000000000000000000, reg_26:00000000000000000000000000000000, reg_27:00000000000000000000000000000000
reg_28:00000000000000000000000000000000, reg_29:00000000000000000000000000000000, reg_30:00000000000000000000000000000000, reg_31:00000000000000000000000000000000
Rd_data_out: 00000000000000010000000000000000
Time:                   45, PC: 00400003, Instruction: 00111100000000101000000000000000, ALU_A: 00000000000000000000000000000000, ALU_B:00000000000000001000000000000000, ALU_ans: 10000000000000000000000000000000, Op:001111, Func: 000000
Ext16_signed In:1000000000000000, Ext16_signed Out:11111111111111111000000000000000, Ext16_zero_out     32768
RsC:00000, RtC:00010, RdC:10000
MUX_8_out: 00000000000000001000000000000000
reg_0:00000000000000000000000000000000, reg_1:00000000000000010000000000000000, reg_2:10000000000000000000000000000000, reg_3:00000000000000000000000000000000
reg_4:00000000000000000000000000000000, reg_5:00000000000000000000000000000000, reg_6:00000000000000000000000000000000, reg_7:00000000000000000000000000000000
reg_8:00000000000000000000000000000000, reg_9:00000000000000000000000000000000, reg_10:00000000000000000000000000000000, reg_11:00000000000000000000000000000000
reg_12:00000000000000000000000000000000, reg_13:00000000000000000000000000000000, reg_14:00000000000000000000000000000000, reg_15:00000000000000000000000000000000
reg_16:00000000000000000000000000000000, reg_17:00000000000000000000000000000000, reg_18:00000000000000000000000000000000, reg_19:00000000000000000000000000000000
reg_20:00000000000000000000000000000000, reg_21:00000000000000000000000000000000, reg_22:00000000000000000000000000000000, reg_23:00000000000000000000000000000000
reg_24:00000000000000000000000000000000, reg_25:00000000000000000000000000000000, reg_26:00000000000000000000000000000000, reg_27:00000000000000000000000000000000
reg_28:00000000000000000000000000000000, reg_29:00000000000000000000000000000000, reg_30:00000000000000000000000000000000, reg_31:00000000000000000000000000000000
Rd_data_out: 10000000000000000000000000000000
Time:                   55, PC: 00400004, Instruction: 00111100000000111111111111111111, ALU_A: 00000000000000000000000000000000, ALU_B:00000000000000001111111111111111, ALU_ans: 11111111111111110000000000000000, Op:001111, Func: 111111
Ext16_signed In:1111111111111111, Ext16_signed Out:11111111111111111111111111111111, Ext16_zero_out     65535
RsC:00000, RtC:00011, RdC:11111
MUX_8_out: 00000000000000001111111111111111
reg_0:00000000000000000000000000000000, reg_1:00000000000000010000000000000000, reg_2:10000000000000000000000000000000, reg_3:11111111111111110000000000000000
reg_4:00000000000000000000000000000000, reg_5:00000000000000000000000000000000, reg_6:00000000000000000000000000000000, reg_7:00000000000000000000000000000000
reg_8:00000000000000000000000000000000, reg_9:00000000000000000000000000000000, reg_10:00000000000000000000000000000000, reg_11:00000000000000000000000000000000
reg_12:00000000000000000000000000000000, reg_13:00000000000000000000000000000000, reg_14:00000000000000000000000000000000, reg_15:00000000000000000000000000000000
reg_16:00000000000000000000000000000000, reg_17:00000000000000000000000000000000, reg_18:00000000000000000000000000000000, reg_19:00000000000000000000000000000000
reg_20:00000000000000000000000000000000, reg_21:00000000000000000000000000000000, reg_22:00000000000000000000000000000000, reg_23:00000000000000000000000000000000
reg_24:00000000000000000000000000000000, reg_25:00000000000000000000000000000000, reg_26:00000000000000000000000000000000, reg_27:00000000000000000000000000000000
reg_28:00000000000000000000000000000000, reg_29:00000000000000000000000000000000, reg_30:00000000000000000000000000000000, reg_31:00000000000000000000000000000000
Rd_data_out: 11111111111111110000000000000000
Time:                   65, PC: 00400005, Instruction: 00111100000001001010101111001111, ALU_A: 00000000000000000000000000000000, ALU_B:00000000000000001010101111001111, ALU_ans: 10101011110011110000000000000000, Op:001111, Func: 001111
Ext16_signed In:1010101111001111, Ext16_signed Out:11111111111111111010101111001111, Ext16_zero_out     43983
RsC:00000, RtC:00100, RdC:10101
MUX_8_out: 00000000000000001010101111001111
reg_0:00000000000000000000000000000000, reg_1:00000000000000010000000000000000, reg_2:10000000000000000000000000000000, reg_3:11111111111111110000000000000000
reg_4:10101011110011110000000000000000, reg_5:00000000000000000000000000000000, reg_6:00000000000000000000000000000000, reg_7:00000000000000000000000000000000
reg_8:00000000000000000000000000000000, reg_9:00000000000000000000000000000000, reg_10:00000000000000000000000000000000, reg_11:00000000000000000000000000000000
reg_12:00000000000000000000000000000000, reg_13:00000000000000000000000000000000, reg_14:00000000000000000000000000000000, reg_15:00000000000000000000000000000000
reg_16:00000000000000000000000000000000, reg_17:00000000000000000000000000000000, reg_18:00000000000000000000000000000000, reg_19:00000000000000000000000000000000
reg_20:00000000000000000000000000000000, reg_21:00000000000000000000000000000000, reg_22:00000000000000000000000000000000, reg_23:00000000000000000000000000000000
reg_24:00000000000000000000000000000000, reg_25:00000000000000000000000000000000, reg_26:00000000000000000000000000000000, reg_27:00000000000000000000000000000000
reg_28:00000000000000000000000000000000, reg_29:00000000000000000000000000000000, reg_30:00000000000000000000000000000000, reg_31:00000000000000000000000000000000
Rd_data_out: 10101011110011110000000000000000
Time:                   75, PC: 00400006, Instruction: 00111100000001010001000111111111, ALU_A: 00000000000000000000000000000000, ALU_B:00000000000000000001000111111111, ALU_ans: 00010001111111110000000000000000, Op:001111, Func: 111111
Ext16_signed In:0001000111111111, Ext16_signed Out:00000000000000000001000111111111, Ext16_zero_out      4607
RsC:00000, RtC:00101, RdC:00010
MUX_8_out: 00000000000000000001000111111111
reg_0:00000000000000000000000000000000, reg_1:00000000000000010000000000000000, reg_2:10000000000000000000000000000000, reg_3:11111111111111110000000000000000
reg_4:10101011110011110000000000000000, reg_5:00010001111111110000000000000000, reg_6:00000000000000000000000000000000, reg_7:00000000000000000000000000000000
reg_8:00000000000000000000000000000000, reg_9:00000000000000000000000000000000, reg_10:00000000000000000000000000000000, reg_11:00000000000000000000000000000000
reg_12:00000000000000000000000000000000, reg_13:00000000000000000000000000000000, reg_14:00000000000000000000000000000000, reg_15:00000000000000000000000000000000
reg_16:00000000000000000000000000000000, reg_17:00000000000000000000000000000000, reg_18:00000000000000000000000000000000, reg_19:00000000000000000000000000000000
reg_20:00000000000000000000000000000000, reg_21:00000000000000000000000000000000, reg_22:00000000000000000000000000000000, reg_23:00000000000000000000000000000000
reg_24:00000000000000000000000000000000, reg_25:00000000000000000000000000000000, reg_26:00000000000000000000000000000000, reg_27:00000000000000000000000000000000
reg_28:00000000000000000000000000000000, reg_29:00000000000000000000000000000000, reg_30:00000000000000000000000000000000, reg_31:00000000000000000000000000000000
Rd_data_out: 00010001111111110000000000000000
Time:                   85, PC: 00400007, Instruction: 00111100000001101111110100111111, ALU_A: 00000000000000000000000000000000, ALU_B:00000000000000001111110100111111, ALU_ans: 11111101001111110000000000000000, Op:001111, Func: 111111
Ext16_signed In:1111110100111111, Ext16_signed Out:11111111111111111111110100111111, Ext16_zero_out     64831
RsC:00000, RtC:00110, RdC:11111
MUX_8_out: 00000000000000001111110100111111
reg_0:00000000000000000000000000000000, reg_1:00000000000000010000000000000000, reg_2:10000000000000000000000000000000, reg_3:11111111111111110000000000000000
reg_4:10101011110011110000000000000000, reg_5:00010001111111110000000000000000, reg_6:11111101001111110000000000000000, reg_7:00000000000000000000000000000000
reg_8:00000000000000000000000000000000, reg_9:00000000000000000000000000000000, reg_10:00000000000000000000000000000000, reg_11:00000000000000000000000000000000
reg_12:00000000000000000000000000000000, reg_13:00000000000000000000000000000000, reg_14:00000000000000000000000000000000, reg_15:00000000000000000000000000000000
reg_16:00000000000000000000000000000000, reg_17:00000000000000000000000000000000, reg_18:00000000000000000000000000000000, reg_19:00000000000000000000000000000000
reg_20:00000000000000000000000000000000, reg_21:00000000000000000000000000000000, reg_22:00000000000000000000000000000000, reg_23:00000000000000000000000000000000
reg_24:00000000000000000000000000000000, reg_25:00000000000000000000000000000000, reg_26:00000000000000000000000000000000, reg_27:00000000000000000000000000000000
reg_28:00000000000000000000000000000000, reg_29:00000000000000000000000000000000, reg_30:00000000000000000000000000000000, reg_31:00000000000000000000000000000000
Rd_data_out: 11111101001111110000000000000000
Time:                   95, PC: 00400008, Instruction: 00111100000001111111101011111111, ALU_A: 00000000000000000000000000000000, ALU_B:00000000000000001111101011111111, ALU_ans: 11111010111111110000000000000000, Op:001111, Func: 111111
Ext16_signed In:1111101011111111, Ext16_signed Out:11111111111111111111101011111111, Ext16_zero_out     64255
RsC:00000, RtC:00111, RdC:11111
MUX_8_out: 00000000000000001111101011111111
reg_0:00000000000000000000000000000000, reg_1:00000000000000010000000000000000, reg_2:10000000000000000000000000000000, reg_3:11111111111111110000000000000000
reg_4:10101011110011110000000000000000, reg_5:00010001111111110000000000000000, reg_6:11111101001111110000000000000000, reg_7:11111010111111110000000000000000
reg_8:00000000000000000000000000000000, reg_9:00000000000000000000000000000000, reg_10:00000000000000000000000000000000, reg_11:00000000000000000000000000000000
reg_12:00000000000000000000000000000000, reg_13:00000000000000000000000000000000, reg_14:00000000000000000000000000000000, reg_15:00000000000000000000000000000000
reg_16:00000000000000000000000000000000, reg_17:00000000000000000000000000000000, reg_18:00000000000000000000000000000000, reg_19:00000000000000000000000000000000
reg_20:00000000000000000000000000000000, reg_21:00000000000000000000000000000000, reg_22:00000000000000000000000000000000, reg_23:00000000000000000000000000000000
reg_24:00000000000000000000000000000000, reg_25:00000000000000000000000000000000, reg_26:00000000000000000000000000000000, reg_27:00000000000000000000000000000000
reg_28:00000000000000000000000000000000, reg_29:00000000000000000000000000000000, reg_30:00000000000000000000000000000000, reg_31:00000000000000000000000000000000
Rd_data_out: 11111010111111110000000000000000
Time:                  105, PC: 00400009, Instruction: 00111100000010000000000111111111, ALU_A: 00000000000000000000000000000000, ALU_B:00000000000000000000000111111111, ALU_ans: 00000001111111110000000000000000, Op:001111, Func: 111111
Ext16_signed In:0000000111111111, Ext16_signed Out:00000000000000000000000111111111, Ext16_zero_out       511
RsC:00000, RtC:01000, RdC:00000
MUX_8_out: 00000000000000000000000111111111
reg_0:00000000000000000000000000000000, reg_1:00000000000000010000000000000000, reg_2:10000000000000000000000000000000, reg_3:11111111111111110000000000000000
reg_4:10101011110011110000000000000000, reg_5:00010001111111110000000000000000, reg_6:11111101001111110000000000000000, reg_7:11111010111111110000000000000000
reg_8:00000001111111110000000000000000, reg_9:00000000000000000000000000000000, reg_10:00000000000000000000000000000000, reg_11:00000000000000000000000000000000
reg_12:00000000000000000000000000000000, reg_13:00000000000000000000000000000000, reg_14:00000000000000000000000000000000, reg_15:00000000000000000000000000000000
reg_16:00000000000000000000000000000000, reg_17:00000000000000000000000000000000, reg_18:00000000000000000000000000000000, reg_19:00000000000000000000000000000000
reg_20:00000000000000000000000000000000, reg_21:00000000000000000000000000000000, reg_22:00000000000000000000000000000000, reg_23:00000000000000000000000000000000
reg_24:00000000000000000000000000000000, reg_25:00000000000000000000000000000000, reg_26:00000000000000000000000000000000, reg_27:00000000000000000000000000000000
reg_28:00000000000000000000000000000000, reg_29:00000000000000000000000000000000, reg_30:00000000000000000000000000000000, reg_31:00000000000000000000000000000000
Rd_data_out: 00000001111111110000000000000000
Time:                  115, PC: 0040000a, Instruction: 00111100000010010100010111111111, ALU_A: 00000000000000000000000000000000, ALU_B:00000000000000000100010111111111, ALU_ans: 01000101111111110000000000000000, Op:001111, Func: 111111
Ext16_signed In:0100010111111111, Ext16_signed Out:00000000000000000100010111111111, Ext16_zero_out     17919
RsC:00000, RtC:01001, RdC:01000
MUX_8_out: 00000000000000000100010111111111
reg_0:00000000000000000000000000000000, reg_1:00000000000000010000000000000000, reg_2:10000000000000000000000000000000, reg_3:11111111111111110000000000000000
reg_4:10101011110011110000000000000000, reg_5:00010001111111110000000000000000, reg_6:11111101001111110000000000000000, reg_7:11111010111111110000000000000000
reg_8:00000001111111110000000000000000, reg_9:01000101111111110000000000000000, reg_10:00000000000000000000000000000000, reg_11:00000000000000000000000000000000
reg_12:00000000000000000000000000000000, reg_13:00000000000000000000000000000000, reg_14:00000000000000000000000000000000, reg_15:00000000000000000000000000000000
reg_16:00000000000000000000000000000000, reg_17:00000000000000000000000000000000, reg_18:00000000000000000000000000000000, reg_19:00000000000000000000000000000000
reg_20:00000000000000000000000000000000, reg_21:00000000000000000000000000000000, reg_22:00000000000000000000000000000000, reg_23:00000000000000000000000000000000
reg_24:00000000000000000000000000000000, reg_25:00000000000000000000000000000000, reg_26:00000000000000000000000000000000, reg_27:00000000000000000000000000000000
reg_28:00000000000000000000000000000000, reg_29:00000000000000000000000000000000, reg_30:00000000000000000000000000000000, reg_31:00000000000000000000000000000000
Rd_data_out: 01000101111111110000000000000000
Time:                  125, PC: 0040000b, Instruction: 00111100000010101111000100011111, ALU_A: 00000000000000000000000000000000, ALU_B:00000000000000001111000100011111, ALU_ans: 11110001000111110000000000000000, Op:001111, Func: 011111
Ext16_signed In:1111000100011111, Ext16_signed Out:11111111111111111111000100011111, Ext16_zero_out     61727
RsC:00000, RtC:01010, RdC:11110
MUX_8_out: 00000000000000001111000100011111
reg_0:00000000000000000000000000000000, reg_1:00000000000000010000000000000000, reg_2:10000000000000000000000000000000, reg_3:11111111111111110000000000000000
reg_4:10101011110011110000000000000000, reg_5:00010001111111110000000000000000, reg_6:11111101001111110000000000000000, reg_7:11111010111111110000000000000000
reg_8:00000001111111110000000000000000, reg_9:01000101111111110000000000000000, reg_10:11110001000111110000000000000000, reg_11:00000000000000000000000000000000
reg_12:00000000000000000000000000000000, reg_13:00000000000000000000000000000000, reg_14:00000000000000000000000000000000, reg_15:00000000000000000000000000000000
reg_16:00000000000000000000000000000000, reg_17:00000000000000000000000000000000, reg_18:00000000000000000000000000000000, reg_19:00000000000000000000000000000000
reg_20:00000000000000000000000000000000, reg_21:00000000000000000000000000000000, reg_22:00000000000000000000000000000000, reg_23:00000000000000000000000000000000
reg_24:00000000000000000000000000000000, reg_25:00000000000000000000000000000000, reg_26:00000000000000000000000000000000, reg_27:00000000000000000000000000000000
reg_28:00000000000000000000000000000000, reg_29:00000000000000000000000000000000, reg_30:00000000000000000000000000000000, reg_31:00000000000000000000000000000000
Rd_data_out: 11110001000111110000000000000000
Time:                  135, PC: 0040000c, Instruction: 00111100000010110000111111111111, ALU_A: 00000000000000000000000000000000, ALU_B:00000000000000000000111111111111, ALU_ans: 00001111111111110000000000000000, Op:001111, Func: 111111
Ext16_signed In:0000111111111111, Ext16_signed Out:00000000000000000000111111111111, Ext16_zero_out      4095
RsC:00000, RtC:01011, RdC:00001
MUX_8_out: 00000000000000000000111111111111
reg_0:00000000000000000000000000000000, reg_1:00000000000000010000000000000000, reg_2:10000000000000000000000000000000, reg_3:11111111111111110000000000000000
reg_4:10101011110011110000000000000000, reg_5:00010001111111110000000000000000, reg_6:11111101001111110000000000000000, reg_7:11111010111111110000000000000000
reg_8:00000001111111110000000000000000, reg_9:01000101111111110000000000000000, reg_10:11110001000111110000000000000000, reg_11:00001111111111110000000000000000
reg_12:00000000000000000000000000000000, reg_13:00000000000000000000000000000000, reg_14:00000000000000000000000000000000, reg_15:00000000000000000000000000000000
reg_16:00000000000000000000000000000000, reg_17:00000000000000000000000000000000, reg_18:00000000000000000000000000000000, reg_19:00000000000000000000000000000000
reg_20:00000000000000000000000000000000, reg_21:00000000000000000000000000000000, reg_22:00000000000000000000000000000000, reg_23:00000000000000000000000000000000
reg_24:00000000000000000000000000000000, reg_25:00000000000000000000000000000000, reg_26:00000000000000000000000000000000, reg_27:00000000000000000000000000000000
reg_28:00000000000000000000000000000000, reg_29:00000000000000000000000000000000, reg_30:00000000000000000000000000000000, reg_31:00000000000000000000000000000000
Rd_data_out: 00001111111111110000000000000000
Time:                  145, PC: 0040000d, Instruction: 00111100000011001101111111111111, ALU_A: 00000000000000000000000000000000, ALU_B:00000000000000001101111111111111, ALU_ans: 11011111111111110000000000000000, Op:001111, Func: 111111
Ext16_signed In:1101111111111111, Ext16_signed Out:11111111111111111101111111111111, Ext16_zero_out     57343
RsC:00000, RtC:01100, RdC:11011
MUX_8_out: 00000000000000001101111111111111
reg_0:00000000000000000000000000000000, reg_1:00000000000000010000000000000000, reg_2:10000000000000000000000000000000, reg_3:11111111111111110000000000000000
reg_4:10101011110011110000000000000000, reg_5:00010001111111110000000000000000, reg_6:11111101001111110000000000000000, reg_7:11111010111111110000000000000000
reg_8:00000001111111110000000000000000, reg_9:01000101111111110000000000000000, reg_10:11110001000111110000000000000000, reg_11:00001111111111110000000000000000
reg_12:11011111111111110000000000000000, reg_13:00000000000000000000000000000000, reg_14:00000000000000000000000000000000, reg_15:00000000000000000000000000000000
reg_16:00000000000000000000000000000000, reg_17:00000000000000000000000000000000, reg_18:00000000000000000000000000000000, reg_19:00000000000000000000000000000000
reg_20:00000000000000000000000000000000, reg_21:00000000000000000000000000000000, reg_22:00000000000000000000000000000000, reg_23:00000000000000000000000000000000
reg_24:00000000000000000000000000000000, reg_25:00000000000000000000000000000000, reg_26:00000000000000000000000000000000, reg_27:00000000000000000000000000000000
reg_28:00000000000000000000000000000000, reg_29:00000000000000000000000000000000, reg_30:00000000000000000000000000000000, reg_31:00000000000000000000000000000000
Rd_data_out: 11011111111111110000000000000000
Time:                  155, PC: 0040000e, Instruction: 00111100000011011110111111111111, ALU_A: 00000000000000000000000000000000, ALU_B:00000000000000001110111111111111, ALU_ans: 11101111111111110000000000000000, Op:001111, Func: 111111
Ext16_signed In:1110111111111111, Ext16_signed Out:11111111111111111110111111111111, Ext16_zero_out     61439
RsC:00000, RtC:01101, RdC:11101
MUX_8_out: 00000000000000001110111111111111
reg_0:00000000000000000000000000000000, reg_1:00000000000000010000000000000000, reg_2:10000000000000000000000000000000, reg_3:11111111111111110000000000000000
reg_4:10101011110011110000000000000000, reg_5:00010001111111110000000000000000, reg_6:11111101001111110000000000000000, reg_7:11111010111111110000000000000000
reg_8:00000001111111110000000000000000, reg_9:01000101111111110000000000000000, reg_10:11110001000111110000000000000000, reg_11:00001111111111110000000000000000
reg_12:11011111111111110000000000000000, reg_13:11101111111111110000000000000000, reg_14:00000000000000000000000000000000, reg_15:00000000000000000000000000000000
reg_16:00000000000000000000000000000000, reg_17:00000000000000000000000000000000, reg_18:00000000000000000000000000000000, reg_19:00000000000000000000000000000000
reg_20:00000000000000000000000000000000, reg_21:00000000000000000000000000000000, reg_22:00000000000000000000000000000000, reg_23:00000000000000000000000000000000
reg_24:00000000000000000000000000000000, reg_25:00000000000000000000000000000000, reg_26:00000000000000000000000000000000, reg_27:00000000000000000000000000000000
reg_28:00000000000000000000000000000000, reg_29:00000000000000000000000000000000, reg_30:00000000000000000000000000000000, reg_31:00000000000000000000000000000000
Rd_data_out: 11101111111111110000000000000000
Time:                  165, PC: 0040000f, Instruction: 00111100000011101011111111111111, ALU_A: 00000000000000000000000000000000, ALU_B:00000000000000001011111111111111, ALU_ans: 10111111111111110000000000000000, Op:001111, Func: 111111
Ext16_signed In:1011111111111111, Ext16_signed Out:11111111111111111011111111111111, Ext16_zero_out     49151
RsC:00000, RtC:01110, RdC:10111
MUX_8_out: 00000000000000001011111111111111
reg_0:00000000000000000000000000000000, reg_1:00000000000000010000000000000000, reg_2:10000000000000000000000000000000, reg_3:11111111111111110000000000000000
reg_4:10101011110011110000000000000000, reg_5:00010001111111110000000000000000, reg_6:11111101001111110000000000000000, reg_7:11111010111111110000000000000000
reg_8:00000001111111110000000000000000, reg_9:01000101111111110000000000000000, reg_10:11110001000111110000000000000000, reg_11:00001111111111110000000000000000
reg_12:11011111111111110000000000000000, reg_13:11101111111111110000000000000000, reg_14:10111111111111110000000000000000, reg_15:00000000000000000000000000000000
reg_16:00000000000000000000000000000000, reg_17:00000000000000000000000000000000, reg_18:00000000000000000000000000000000, reg_19:00000000000000000000000000000000
reg_20:00000000000000000000000000000000, reg_21:00000000000000000000000000000000, reg_22:00000000000000000000000000000000, reg_23:00000000000000000000000000000000
reg_24:00000000000000000000000000000000, reg_25:00000000000000000000000000000000, reg_26:00000000000000000000000000000000, reg_27:00000000000000000000000000000000
reg_28:00000000000000000000000000000000, reg_29:00000000000000000000000000000000, reg_30:00000000000000000000000000000000, reg_31:00000000000000000000000000000000
Rd_data_out: 10111111111111110000000000000000
Time:                  175, PC: 00400010, Instruction: 00111100000011111111111100000001, ALU_A: 00000000000000000000000000000000, ALU_B:00000000000000001111111100000001, ALU_ans: 11111111000000010000000000000000, Op:001111, Func: 000001
Ext16_signed In:1111111100000001, Ext16_signed Out:11111111111111111111111100000001, Ext16_zero_out     65281
RsC:00000, RtC:01111, RdC:11111
MUX_8_out: 00000000000000001111111100000001
reg_0:00000000000000000000000000000000, reg_1:00000000000000010000000000000000, reg_2:10000000000000000000000000000000, reg_3:11111111111111110000000000000000
reg_4:10101011110011110000000000000000, reg_5:00010001111111110000000000000000, reg_6:11111101001111110000000000000000, reg_7:11111010111111110000000000000000
reg_8:00000001111111110000000000000000, reg_9:01000101111111110000000000000000, reg_10:11110001000111110000000000000000, reg_11:00001111111111110000000000000000
reg_12:11011111111111110000000000000000, reg_13:11101111111111110000000000000000, reg_14:10111111111111110000000000000000, reg_15:11111111000000010000000000000000
reg_16:00000000000000000000000000000000, reg_17:00000000000000000000000000000000, reg_18:00000000000000000000000000000000, reg_19:00000000000000000000000000000000
reg_20:00000000000000000000000000000000, reg_21:00000000000000000000000000000000, reg_22:00000000000000000000000000000000, reg_23:00000000000000000000000000000000
reg_24:00000000000000000000000000000000, reg_25:00000000000000000000000000000000, reg_26:00000000000000000000000000000000, reg_27:00000000000000000000000000000000
reg_28:00000000000000000000000000000000, reg_29:00000000000000000000000000000000, reg_30:00000000000000000000000000000000, reg_31:00000000000000000000000000000000
Rd_data_out: 11111111000000010000000000000000
Time:                  185, PC: 00400011, Instruction: 00111100000100001111000000001111, ALU_A: 00000000000000000000000000000000, ALU_B:00000000000000001111000000001111, ALU_ans: 11110000000011110000000000000000, Op:001111, Func: 001111
Ext16_signed In:1111000000001111, Ext16_signed Out:11111111111111111111000000001111, Ext16_zero_out     61455
RsC:00000, RtC:10000, RdC:11110
MUX_8_out: 00000000000000001111000000001111
reg_0:00000000000000000000000000000000, reg_1:00000000000000010000000000000000, reg_2:10000000000000000000000000000000, reg_3:11111111111111110000000000000000
reg_4:10101011110011110000000000000000, reg_5:00010001111111110000000000000000, reg_6:11111101001111110000000000000000, reg_7:11111010111111110000000000000000
reg_8:00000001111111110000000000000000, reg_9:01000101111111110000000000000000, reg_10:11110001000111110000000000000000, reg_11:00001111111111110000000000000000
reg_12:11011111111111110000000000000000, reg_13:11101111111111110000000000000000, reg_14:10111111111111110000000000000000, reg_15:11111111000000010000000000000000
reg_16:11110000000011110000000000000000, reg_17:00000000000000000000000000000000, reg_18:00000000000000000000000000000000, reg_19:00000000000000000000000000000000
reg_20:00000000000000000000000000000000, reg_21:00000000000000000000000000000000, reg_22:00000000000000000000000000000000, reg_23:00000000000000000000000000000000
reg_24:00000000000000000000000000000000, reg_25:00000000000000000000000000000000, reg_26:00000000000000000000000000000000, reg_27:00000000000000000000000000000000
reg_28:00000000000000000000000000000000, reg_29:00000000000000000000000000000000, reg_30:00000000000000000000000000000000, reg_31:00000000000000000000000000000000
Rd_data_out: 11110000000011110000000000000000
Time:                  195, PC: 00400012, Instruction: 00111100000100011111000000001111, ALU_A: 00000000000000000000000000000000, ALU_B:00000000000000001111000000001111, ALU_ans: 11110000000011110000000000000000, Op:001111, Func: 001111
Ext16_signed In:1111000000001111, Ext16_signed Out:11111111111111111111000000001111, Ext16_zero_out     61455
RsC:00000, RtC:10001, RdC:11110
MUX_8_out: 00000000000000001111000000001111
reg_0:00000000000000000000000000000000, reg_1:00000000000000010000000000000000, reg_2:10000000000000000000000000000000, reg_3:11111111111111110000000000000000
reg_4:10101011110011110000000000000000, reg_5:00010001111111110000000000000000, reg_6:11111101001111110000000000000000, reg_7:11111010111111110000000000000000
reg_8:00000001111111110000000000000000, reg_9:01000101111111110000000000000000, reg_10:11110001000111110000000000000000, reg_11:00001111111111110000000000000000
