Computer_Organization_CPU_Design/Vivado/31CPU_new/31CPU_new.sim/sim_1/behav/xsim/simulate.log
Vivado Simulator 2018.1
Time resolution is 1 ps
WARNING: This core is supplied with a behavioral model. To model cycle-accurate behavior you must run timing simulation.
Time:                    5, PC: 000, Instruction: 00000000000000000000000000000000, ALU_A: 00000000000000000000000000000000, ALU_B:00000000000000000000000000000000, ALU_ans: 00000000000000000000000000000000, Op:000000, Func: 000000
Ext16_signed In:0000000000000000, Ext16_signed Out:00000000000000000000000000000000, Ext16_zero_out         0
RsC:00000, RtC:00000, RdC:00000
MUX_8_out: 00000000000000000000000000000000
reg_0:00000000000000000000000000000000, reg_1:00000000000000000000000000000000, reg_2:00000000000000000000000000000000, reg_3:00000000000000000000000000000000
reg_4:00000000000000000000000000000000, reg_5:00000000000000000000000000000000, reg_6:00000000000000000000000000000000, reg_7:00000000000000000000000000000000
reg_8:00000000000000000000000000000000, reg_9:00000000000000000000000000000000, reg_10:00000000000000000000000000000000, reg_11:00000000000000000000000000000000
reg_12:00000000000000000000000000000000, reg_13:00000000000000000000000000000000, reg_14:00000000000000000000000000000000, reg_15:00000000000000000000000000000000
reg_16:00000000000000000000000000000000, reg_17:00000000000000000000000000000000, reg_18:00000000000000000000000000000000, reg_19:00000000000000000000000000000000
reg_20:00000000000000000000000000000000, reg_21:00000000000000000000000000000000, reg_22:00000000000000000000000000000000, reg_23:00000000000000000000000000000000
reg_24:00000000000000000000000000000000, reg_25:00000000000000000000000000000000, reg_26:00000000000000000000000000000000, reg_27:00000000000000000000000000000000
reg_28:00000000000000000000000000000000, reg_29:00000000000000000000000000000000, reg_30:00000000000000000000000000000000, reg_31:00000000000000000000000000000000
Time:                   15, PC: 000, Instruction: 00000000000000000000000000000000, ALU_A: 00000000000000000000000000000000, ALU_B:00000000000000000000000000000000, ALU_ans: 00000000000000000000000000000000, Op:000000, Func: 000000
Ext16_signed In:0000000000000000, Ext16_signed Out:00000000000000000000000000000000, Ext16_zero_out         0
RsC:00000, RtC:00000, RdC:00000
MUX_8_out: 00000000000000000000000000000000
reg_0:00000000000000000000000000000000, reg_1:00000000000000000000000000000000, reg_2:00000000000000000000000000000000, reg_3:00000000000000000000000000000000
reg_4:00000000000000000000000000000000, reg_5:00000000000000000000000000000000, reg_6:00000000000000000000000000000000, reg_7:00000000000000000000000000000000
reg_8:00000000000000000000000000000000, reg_9:00000000000000000000000000000000, reg_10:00000000000000000000000000000000, reg_11:00000000000000000000000000000000
reg_12:00000000000000000000000000000000, reg_13:00000000000000000000000000000000, reg_14:00000000000000000000000000000000, reg_15:00000000000000000000000000000000
reg_16:00000000000000000000000000000000, reg_17:00000000000000000000000000000000, reg_18:00000000000000000000000000000000, reg_19:00000000000000000000000000000000
reg_20:00000000000000000000000000000000, reg_21:00000000000000000000000000000000, reg_22:00000000000000000000000000000000, reg_23:00000000000000000000000000000000
reg_24:00000000000000000000000000000000, reg_25:00000000000000000000000000000000, reg_26:00000000000000000000000000000000, reg_27:00000000000000000000000000000000
reg_28:00000000000000000000000000000000, reg_29:00000000000000000000000000000000, reg_30:00000000000000000000000000000000, reg_31:00000000000000000000000000000000
Time:                   25, PC: 004, Instruction: 00100100011000110000000000011110, ALU_A: 00000000000000000000000000000000, ALU_B:00000000000000000000000000011110, ALU_ans: 00000000000000000000000000011110, Op:001001, Func: 011110
Ext16_signed In:0000000000011110, Ext16_signed Out:00000000000000000000000000011110, Ext16_zero_out        30
RsC:00011, RtC:00011, RdC:00000
MUX_8_out: 00000000000000000000000000011110
reg_0:00000000000000000000000000000000, reg_1:00000000000000000000000000000000, reg_2:00000000000000000000000000000000, reg_3:00000000000000000000000000000000
reg_4:00000000000000000000000000000000, reg_5:00000000000000000000000000000000, reg_6:00000000000000000000000000000000, reg_7:00000000000000000000000000000000
reg_8:00000000000000000000000000000000, reg_9:00000000000000000000000000000000, reg_10:00000000000000000000000000000000, reg_11:00000000000000000000000000000000
reg_12:00000000000000000000000000000000, reg_13:00000000000000000000000000000000, reg_14:00000000000000000000000000000000, reg_15:00000000000000000000000000000000
reg_16:00000000000000000000000000000000, reg_17:00000000000000000000000000000000, reg_18:00000000000000000000000000000000, reg_19:00000000000000000000000000000000
reg_20:00000000000000000000000000000000, reg_21:00000000000000000000000000000000, reg_22:00000000000000000000000000000000, reg_23:00000000000000000000000000000000
reg_24:00000000000000000000000000000000, reg_25:00000000000000000000000000000000, reg_26:00000000000000000000000000000000, reg_27:00000000000000000000000000000000
reg_28:00000000000000000000000000000000, reg_29:00000000000000000000000000000000, reg_30:00000000000000000000000000000000, reg_31:00000000000000000000000000000000
Time:                   35, PC: 008, Instruction: 00000000000000000000000000000000, ALU_A: 00000000000000000000000000000000, ALU_B:00000000000000000000000000000000, ALU_ans: 00000000000000000000000000000000, Op:000000, Func: 000000
Ext16_signed In:0000000000000000, Ext16_signed Out:00000000000000000000000000000000, Ext16_zero_out         0
RsC:00000, RtC:00000, RdC:00000
MUX_8_out: 00000000000000000000000000000000
reg_0:00000000000000000000000000000000, reg_1:00000000000000000000000000000000, reg_2:00000000000000000000000000000000, reg_3:00000000000000000000000000000000
reg_4:00000000000000000000000000000000, reg_5:00000000000000000000000000000000, reg_6:00000000000000000000000000000000, reg_7:00000000000000000000000000000000
reg_8:00000000000000000000000000000000, reg_9:00000000000000000000000000000000, reg_10:00000000000000000000000000000000, reg_11:00000000000000000000000000000000
reg_12:00000000000000000000000000000000, reg_13:00000000000000000000000000000000, reg_14:00000000000000000000000000000000, reg_15:00000000000000000000000000000000
reg_16:00000000000000000000000000000000, reg_17:00000000000000000000000000000000, reg_18:00000000000000000000000000000000, reg_19:00000000000000000000000000000000
reg_20:00000000000000000000000000000000, reg_21:00000000000000000000000000000000, reg_22:00000000000000000000000000000000, reg_23:00000000000000000000000000000000
reg_24:00000000000000000000000000000000, reg_25:00000000000000000000000000000000, reg_26:00000000000000000000000000000000, reg_27:00000000000000000000000000000000
reg_28:00000000000000000000000000000000, reg_29:00000000000000000000000000000000, reg_30:00000000000000000000000000000000, reg_31:00000000000000000000000000000000
Time:                   45, PC: 00c, Instruction: 00000000000000000000000000000000, ALU_A: 00000000000000000000000000000000, ALU_B:00000000000000000000000000000000, ALU_ans: 00000000000000000000000000000000, Op:000000, Func: 000000
Ext16_signed In:0000000000000000, Ext16_signed Out:00000000000000000000000000000000, Ext16_zero_out         0
RsC:00000, RtC:00000, RdC:00000
MUX_8_out: 00000000000000000000000000000000
reg_0:00000000000000000000000000000000, reg_1:00000000000000000000000000000000, reg_2:00000000000000000000000000000000, reg_3:00000000000000000000000000000000
reg_4:00000000000000000000000000000000, reg_5:00000000000000000000000000000000, reg_6:00000000000000000000000000000000, reg_7:00000000000000000000000000000000
reg_8:00000000000000000000000000000000, reg_9:00000000000000000000000000000000, reg_10:00000000000000000000000000000000, reg_11:00000000000000000000000000000000
reg_12:00000000000000000000000000000000, reg_13:00000000000000000000000000000000, reg_14:00000000000000000000000000000000, reg_15:00000000000000000000000000000000
reg_16:00000000000000000000000000000000, reg_17:00000000000000000000000000000000, reg_18:00000000000000000000000000000000, reg_19:00000000000000000000000000000000
reg_20:00000000000000000000000000000000, reg_21:00000000000000000000000000000000, reg_22:00000000000000000000000000000000, reg_23:00000000000000000000000000000000
reg_24:00000000000000000000000000000000, reg_25:00000000000000000000000000000000, reg_26:00000000000000000000000000000000, reg_27:00000000000000000000000000000000
reg_28:00000000000000000000000000000000, reg_29:00000000000000000000000000000000, reg_30:00000000000000000000000000000000, reg_31:00000000000000000000000000000000
Time:                   55, PC: 010, Instruction: 00000000000000000000000000000000, ALU_A: 00000000000000000000000000000000, ALU_B:00000000000000000000000000000000, ALU_ans: 00000000000000000000000000000000, Op:000000, Func: 000000
Ext16_signed In:0000000000000000, Ext16_signed Out:00000000000000000000000000000000, Ext16_zero_out         0
RsC:00000, RtC:00000, RdC:00000
MUX_8_out: 00000000000000000000000000000000
reg_0:00000000000000000000000000000000, reg_1:00000000000000000000000000000000, reg_2:00000000000000000000000000000000, reg_3:00000000000000000000000000000000
reg_4:00000000000000000000000000000000, reg_5:00000000000000000000000000000000, reg_6:00000000000000000000000000000000, reg_7:00000000000000000000000000000000
reg_8:00000000000000000000000000000000, reg_9:00000000000000000000000000000000, reg_10:00000000000000000000000000000000, reg_11:00000000000000000000000000000000
reg_12:00000000000000000000000000000000, reg_13:00000000000000000000000000000000, reg_14:00000000000000000000000000000000, reg_15:00000000000000000000000000000000
reg_16:00000000000000000000000000000000, reg_17:00000000000000000000000000000000, reg_18:00000000000000000000000000000000, reg_19:00000000000000000000000000000000
reg_20:00000000000000000000000000000000, reg_21:00000000000000000000000000000000, reg_22:00000000000000000000000000000000, reg_23:00000000000000000000000000000000
reg_24:00000000000000000000000000000000, reg_25:00000000000000000000000000000000, reg_26:00000000000000000000000000000000, reg_27:00000000000000000000000000000000
reg_28:00000000000000000000000000000000, reg_29:00000000000000000000000000000000, reg_30:00000000000000000000000000000000, reg_31:00000000000000000000000000000000
Time:                   65, PC: 014, Instruction: 00000000000000000000000000000000, ALU_A: 00000000000000000000000000000000, ALU_B:00000000000000000000000000000000, ALU_ans: 00000000000000000000000000000000, Op:000000, Func: 000000
Ext16_signed In:0000000000000000, Ext16_signed Out:00000000000000000000000000000000, Ext16_zero_out         0
RsC:00000, RtC:00000, RdC:00000
MUX_8_out: 00000000000000000000000000000000
reg_0:00000000000000000000000000000000, reg_1:00000000000000000000000000000000, reg_2:00000000000000000000000000000000, reg_3:00000000000000000000000000000000
reg_4:00000000000000000000000000000000, reg_5:00000000000000000000000000000000, reg_6:00000000000000000000000000000000, reg_7:00000000000000000000000000000000
reg_8:00000000000000000000000000000000, reg_9:00000000000000000000000000000000, reg_10:00000000000000000000000000000000, reg_11:00000000000000000000000000000000
reg_12:00000000000000000000000000000000, reg_13:00000000000000000000000000000000, reg_14:00000000000000000000000000000000, reg_15:00000000000000000000000000000000
reg_16:00000000000000000000000000000000, reg_17:00000000000000000000000000000000, reg_18:00000000000000000000000000000000, reg_19:00000000000000000000000000000000
reg_20:00000000000000000000000000000000, reg_21:00000000000000000000000000000000, reg_22:00000000000000000000000000000000, reg_23:00000000000000000000000000000000
reg_24:00000000000000000000000000000000, reg_25:00000000000000000000000000000000, reg_26:00000000000000000000000000000000, reg_27:00000000000000000000000000000000
reg_28:00000000000000000000000000000000, reg_29:00000000000000000000000000000000, reg_30:00000000000000000000000000000000, reg_31:00000000000000000000000000000000
Time:                   75, PC: 018, Instruction: 00000000000000000000000000000000, ALU_A: 00000000000000000000000000000000, ALU_B:00000000000000000000000000000000, ALU_ans: 00000000000000000000000000000000, Op:000000, Func: 000000
Ext16_signed In:0000000000000000, Ext16_signed Out:00000000000000000000000000000000, Ext16_zero_out         0
RsC:00000, RtC:00000, RdC:00000
MUX_8_out: 00000000000000000000000000000000
reg_0:00000000000000000000000000000000, reg_1:00000000000000000000000000000000, reg_2:00000000000000000000000000000000, reg_3:00000000000000000000000000000000
reg_4:00000000000000000000000000000000, reg_5:00000000000000000000000000000000, reg_6:00000000000000000000000000000000, reg_7:00000000000000000000000000000000
reg_8:00000000000000000000000000000000, reg_9:00000000000000000000000000000000, reg_10:00000000000000000000000000000000, reg_11:00000000000000000000000000000000
reg_12:00000000000000000000000000000000, reg_13:00000000000000000000000000000000, reg_14:00000000000000000000000000000000, reg_15:00000000000000000000000000000000
reg_16:00000000000000000000000000000000, reg_17:00000000000000000000000000000000, reg_18:00000000000000000000000000000000, reg_19:00000000000000000000000000000000
reg_20:00000000000000000000000000000000, reg_21:00000000000000000000000000000000, reg_22:00000000000000000000000000000000, reg_23:00000000000000000000000000000000
reg_24:00000000000000000000000000000000, reg_25:00000000000000000000000000000000, reg_26:00000000000000000000000000000000, reg_27:00000000000000000000000000000000
reg_28:00000000000000000000000000000000, reg_29:00000000000000000000000000000000, reg_30:00000000000000000000000000000000, reg_31:00000000000000000000000000000000
Time:                   85, PC: 01c, Instruction: 00000000000000000000000000000000, ALU_A: 00000000000000000000000000000000, ALU_B:00000000000000000000000000000000, ALU_ans: 00000000000000000000000000000000, Op:000000, Func: 000000
Ext16_signed In:0000000000000000, Ext16_signed Out:00000000000000000000000000000000, Ext16_zero_out         0
RsC:00000, RtC:00000, RdC:00000
MUX_8_out: 00000000000000000000000000000000
reg_0:00000000000000000000000000000000, reg_1:00000000000000000000000000000000, reg_2:00000000000000000000000000000000, reg_3:00000000000000000000000000000000
reg_4:00000000000000000000000000000000, reg_5:00000000000000000000000000000000, reg_6:00000000000000000000000000000000, reg_7:00000000000000000000000000000000
reg_8:00000000000000000000000000000000, reg_9:00000000000000000000000000000000, reg_10:00000000000000000000000000000000, reg_11:00000000000000000000000000000000
reg_12:00000000000000000000000000000000, reg_13:00000000000000000000000000000000, reg_14:00000000000000000000000000000000, reg_15:00000000000000000000000000000000
reg_16:00000000000000000000000000000000, reg_17:00000000000000000000000000000000, reg_18:00000000000000000000000000000000, reg_19:00000000000000000000000000000000
reg_20:00000000000000000000000000000000, reg_21:00000000000000000000000000000000, reg_22:00000000000000000000000000000000, reg_23:00000000000000000000000000000000
reg_24:00000000000000000000000000000000, reg_25:00000000000000000000000000000000, reg_26:00000000000000000000000000000000, reg_27:00000000000000000000000000000000
reg_28:00000000000000000000000000000000, reg_29:00000000000000000000000000000000, reg_30:00000000000000000000000000000000, reg_31:00000000000000000000000000000000
Time:                   95, PC: 020, Instruction: 00000000000000000000000000000000, ALU_A: 00000000000000000000000000000000, ALU_B:00000000000000000000000000000000, ALU_ans: 00000000000000000000000000000000, Op:000000, Func: 000000
Ext16_signed In:0000000000000000, Ext16_signed Out:00000000000000000000000000000000, Ext16_zero_out         0
RsC:00000, RtC:00000, RdC:00000
MUX_8_out: 00000000000000000000000000000000
reg_0:00000000000000000000000000000000, reg_1:00000000000000000000000000000000, reg_2:00000000000000000000000000000000, reg_3:00000000000000000000000000000000
reg_4:00000000000000000000000000000000, reg_5:00000000000000000000000000000000, reg_6:00000000000000000000000000000000, reg_7:00000000000000000000000000000000
reg_8:00000000000000000000000000000000, reg_9:00000000000000000000000000000000, reg_10:00000000000000000000000000000000, reg_11:00000000000000000000000000000000
reg_12:00000000000000000000000000000000, reg_13:00000000000000000000000000000000, reg_14:00000000000000000000000000000000, reg_15:00000000000000000000000000000000
reg_16:00000000000000000000000000000000, reg_17:00000000000000000000000000000000, reg_18:00000000000000000000000000000000, reg_19:00000000000000000000000000000000
reg_20:00000000000000000000000000000000, reg_21:00000000000000000000000000000000, reg_22:00000000000000000000000000000000, reg_23:00000000000000000000000000000000
reg_24:00000000000000000000000000000000, reg_25:00000000000000000000000000000000, reg_26:00000000000000000000000000000000, reg_27:00000000000000000000000000000000
reg_28:00000000000000000000000000000000, reg_29:00000000000000000000000000000000, reg_30:00000000000000000000000000000000, reg_31:00000000000000000000000000000000
Time:                  105, PC: 024, Instruction: 00000000000000000000000000000000, ALU_A: 00000000000000000000000000000000, ALU_B:00000000000000000000000000000000, ALU_ans: 00000000000000000000000000000000, Op:000000, Func: 000000
Ext16_signed In:0000000000000000, Ext16_signed Out:00000000000000000000000000000000, Ext16_zero_out         0
RsC:00000, RtC:00000, RdC:00000
MUX_8_out: 00000000000000000000000000000000
reg_0:00000000000000000000000000000000, reg_1:00000000000000000000000000000000, reg_2:00000000000000000000000000000000, reg_3:00000000000000000000000000000000
reg_4:00000000000000000000000000000000, reg_5:00000000000000000000000000000000, reg_6:00000000000000000000000000000000, reg_7:00000000000000000000000000000000
reg_8:00000000000000000000000000000000, reg_9:00000000000000000000000000000000, reg_10:00000000000000000000000000000000, reg_11:00000000000000000000000000000000
reg_12:00000000000000000000000000000000, reg_13:00000000000000000000000000000000, reg_14:00000000000000000000000000000000, reg_15:00000000000000000000000000000000
reg_16:00000000000000000000000000000000, reg_17:00000000000000000000000000000000, reg_18:00000000000000000000000000000000, reg_19:00000000000000000000000000000000
reg_20:00000000000000000000000000000000, reg_21:00000000000000000000000000000000, reg_22:00000000000000000000000000000000, reg_23:00000000000000000000000000000000
reg_24:00000000000000000000000000000000, reg_25:00000000000000000000000000000000, reg_26:00000000000000000000000000000000, reg_27:00000000000000000000000000000000
reg_28:00000000000000000000000000000000, reg_29:00000000000000000000000000000000, reg_30:00000000000000000000000000000000, reg_31:00000000000000000000000000000000
Time:                  115, PC: 028, Instruction: 00000000000000000000000000000000, ALU_A: 00000000000000000000000000000000, ALU_B:00000000000000000000000000000000, ALU_ans: 00000000000000000000000000000000, Op:000000, Func: 000000
Ext16_signed In:0000000000000000, Ext16_signed Out:00000000000000000000000000000000, Ext16_zero_out         0
RsC:00000, RtC:00000, RdC:00000
MUX_8_out: 00000000000000000000000000000000
reg_0:00000000000000000000000000000000, reg_1:00000000000000000000000000000000, reg_2:00000000000000000000000000000000, reg_3:00000000000000000000000000000000
reg_4:00000000000000000000000000000000, reg_5:00000000000000000000000000000000, reg_6:00000000000000000000000000000000, reg_7:00000000000000000000000000000000
reg_8:00000000000000000000000000000000, reg_9:00000000000000000000000000000000, reg_10:00000000000000000000000000000000, reg_11:00000000000000000000000000000000
reg_12:00000000000000000000000000000000, reg_13:00000000000000000000000000000000, reg_14:00000000000000000000000000000000, reg_15:00000000000000000000000000000000
reg_16:00000000000000000000000000000000, reg_17:00000000000000000000000000000000, reg_18:00000000000000000000000000000000, reg_19:00000000000000000000000000000000
reg_20:00000000000000000000000000000000, reg_21:00000000000000000000000000000000, reg_22:00000000000000000000000000000000, reg_23:00000000000000000000000000000000
reg_24:00000000000000000000000000000000, reg_25:00000000000000000000000000000000, reg_26:00000000000000000000000000000000, reg_27:00000000000000000000000000000000
reg_28:00000000000000000000000000000000, reg_29:00000000000000000000000000000000, reg_30:00000000000000000000000000000000, reg_31:00000000000000000000000000000000
Time:                  125, PC: 02c, Instruction: 00000000000000000000000000000000, ALU_A: 00000000000000000000000000000000, ALU_B:00000000000000000000000000000000, ALU_ans: 00000000000000000000000000000000, Op:000000, Func: 000000
Ext16_signed In:0000000000000000, Ext16_signed Out:00000000000000000000000000000000, Ext16_zero_out         0
RsC:00000, RtC:00000, RdC:00000
MUX_8_out: 00000000000000000000000000000000
reg_0:00000000000000000000000000000000, reg_1:00000000000000000000000000000000, reg_2:00000000000000000000000000000000, reg_3:00000000000000000000000000000000
reg_4:00000000000000000000000000000000, reg_5:00000000000000000000000000000000, reg_6:00000000000000000000000000000000, reg_7:00000000000000000000000000000000
reg_8:00000000000000000000000000000000, reg_9:00000000000000000000000000000000, reg_10:00000000000000000000000000000000, reg_11:00000000000000000000000000000000
reg_12:00000000000000000000000000000000, reg_13:00000000000000000000000000000000, reg_14:00000000000000000000000000000000, reg_15:00000000000000000000000000000000
reg_16:00000000000000000000000000000000, reg_17:00000000000000000000000000000000, reg_18:00000000000000000000000000000000, reg_19:00000000000000000000000000000000
reg_20:00000000000000000000000000000000, reg_21:00000000000000000000000000000000, reg_22:00000000000000000000000000000000, reg_23:00000000000000000000000000000000
reg_24:00000000000000000000000000000000, reg_25:00000000000000000000000000000000, reg_26:00000000000000000000000000000000, reg_27:00000000000000000000000000000000
reg_28:00000000000000000000000000000000, reg_29:00000000000000000000000000000000, reg_30:00000000000000000000000000000000, reg_31:00000000000000000000000000000000
Time:                  135, PC: 030, Instruction: 00000000000000000000000000000000, ALU_A: 00000000000000000000000000000000, ALU_B:00000000000000000000000000000000, ALU_ans: 00000000000000000000000000000000, Op:000000, Func: 000000
Ext16_signed In:0000000000000000, Ext16_signed Out:00000000000000000000000000000000, Ext16_zero_out         0
RsC:00000, RtC:00000, RdC:00000
MUX_8_out: 00000000000000000000000000000000
reg_0:00000000000000000000000000000000, reg_1:00000000000000000000000000000000, reg_2:00000000000000000000000000000000, reg_3:00000000000000000000000000000000
reg_4:00000000000000000000000000000000, reg_5:00000000000000000000000000000000, reg_6:00000000000000000000000000000000, reg_7:00000000000000000000000000000000
reg_8:00000000000000000000000000000000, reg_9:00000000000000000000000000000000, reg_10:00000000000000000000000000000000, reg_11:00000000000000000000000000000000
reg_12:00000000000000000000000000000000, reg_13:00000000000000000000000000000000, reg_14:00000000000000000000000000000000, reg_15:00000000000000000000000000000000
reg_16:00000000000000000000000000000000, reg_17:00000000000000000000000000000000, reg_18:00000000000000000000000000000000, reg_19:00000000000000000000000000000000
reg_20:00000000000000000000000000000000, reg_21:00000000000000000000000000000000, reg_22:00000000000000000000000000000000, reg_23:00000000000000000000000000000000
reg_24:00000000000000000000000000000000, reg_25:00000000000000000000000000000000, reg_26:00000000000000000000000000000000, reg_27:00000000000000000000000000000000
reg_28:00000000000000000000000000000000, reg_29:00000000000000000000000000000000, reg_30:00000000000000000000000000000000, reg_31:00000000000000000000000000000000
Time:                  145, PC: 034, Instruction: 00000000000000000000000000000000, ALU_A: 00000000000000000000000000000000, ALU_B:00000000000000000000000000000000, ALU_ans: 00000000000000000000000000000000, Op:000000, Func: 000000
Ext16_signed In:0000000000000000, Ext16_signed Out:00000000000000000000000000000000, Ext16_zero_out         0
RsC:00000, RtC:00000, RdC:00000
MUX_8_out: 00000000000000000000000000000000
reg_0:00000000000000000000000000000000, reg_1:00000000000000000000000000000000, reg_2:00000000000000000000000000000000, reg_3:00000000000000000000000000000000
reg_4:00000000000000000000000000000000, reg_5:00000000000000000000000000000000, reg_6:00000000000000000000000000000000, reg_7:00000000000000000000000000000000
reg_8:00000000000000000000000000000000, reg_9:00000000000000000000000000000000, reg_10:00000000000000000000000000000000, reg_11:00000000000000000000000000000000
reg_12:00000000000000000000000000000000, reg_13:00000000000000000000000000000000, reg_14:00000000000000000000000000000000, reg_15:00000000000000000000000000000000
reg_16:00000000000000000000000000000000, reg_17:00000000000000000000000000000000, reg_18:00000000000000000000000000000000, reg_19:00000000000000000000000000000000
reg_20:00000000000000000000000000000000, reg_21:00000000000000000000000000000000, reg_22:00000000000000000000000000000000, reg_23:00000000000000000000000000000000
reg_24:00000000000000000000000000000000, reg_25:00000000000000000000000000000000, reg_26:00000000000000000000000000000000, reg_27:00000000000000000000000000000000
reg_28:00000000000000000000000000000000, reg_29:00000000000000000000000000000000, reg_30:00000000000000000000000000000000, reg_31:00000000000000000000000000000000
Time:                  155, PC: 038, Instruction: 00000000000000000000000000000000, ALU_A: 00000000000000000000000000000000, ALU_B:00000000000000000000000000000000, ALU_ans: 00000000000000000000000000000000, Op:000000, Func: 000000
Ext16_signed In:0000000000000000, Ext16_signed Out:00000000000000000000000000000000, Ext16_zero_out         0
RsC:00000, RtC:00000, RdC:00000
MUX_8_out: 00000000000000000000000000000000
reg_0:00000000000000000000000000000000, reg_1:00000000000000000000000000000000, reg_2:00000000000000000000000000000000, reg_3:00000000000000000000000000000000
reg_4:00000000000000000000000000000000, reg_5:00000000000000000000000000000000, reg_6:00000000000000000000000000000000, reg_7:00000000000000000000000000000000
reg_8:00000000000000000000000000000000, reg_9:00000000000000000000000000000000, reg_10:00000000000000000000000000000000, reg_11:00000000000000000000000000000000
reg_12:00000000000000000000000000000000, reg_13:00000000000000000000000000000000, reg_14:00000000000000000000000000000000, reg_15:00000000000000000000000000000000
reg_16:00000000000000000000000000000000, reg_17:00000000000000000000000000000000, reg_18:00000000000000000000000000000000, reg_19:00000000000000000000000000000000
reg_20:00000000000000000000000000000000, reg_21:00000000000000000000000000000000, reg_22:00000000000000000000000000000000, reg_23:00000000000000000000000000000000
reg_24:00000000000000000000000000000000, reg_25:00000000000000000000000000000000, reg_26:00000000000000000000000000000000, reg_27:00000000000000000000000000000000
reg_28:00000000000000000000000000000000, reg_29:00000000000000000000000000000000, reg_30:00000000000000000000000000000000, reg_31:00000000000000000000000000000000
Time:                  165, PC: 03c, Instruction: 00000000000000000000000000000000, ALU_A: 00000000000000000000000000000000, ALU_B:00000000000000000000000000000000, ALU_ans: 00000000000000000000000000000000, Op:000000, Func: 000000
Ext16_signed In:0000000000000000, Ext16_signed Out:00000000000000000000000000000000, Ext16_zero_out         0
RsC:00000, RtC:00000, RdC:00000
MUX_8_out: 00000000000000000000000000000000
reg_0:00000000000000000000000000000000, reg_1:00000000000000000000000000000000, reg_2:00000000000000000000000000000000, reg_3:00000000000000000000000000000000
reg_4:00000000000000000000000000000000, reg_5:00000000000000000000000000000000, reg_6:00000000000000000000000000000000, reg_7:00000000000000000000000000000000
reg_8:00000000000000000000000000000000, reg_9:00000000000000000000000000000000, reg_10:00000000000000000000000000000000, reg_11:00000000000000000000000000000000
reg_12:00000000000000000000000000000000, reg_13:00000000000000000000000000000000, reg_14:00000000000000000000000000000000, reg_15:00000000000000000000000000000000
reg_16:00000000000000000000000000000000, reg_17:00000000000000000000000000000000, reg_18:00000000000000000000000000000000, reg_19:00000000000000000000000000000000
reg_20:00000000000000000000000000000000, reg_21:00000000000000000000000000000000, reg_22:00000000000000000000000000000000, reg_23:00000000000000000000000000000000
reg_24:00000000000000000000000000000000, reg_25:00000000000000000000000000000000, reg_26:00000000000000000000000000000000, reg_27:00000000000000000000000000000000
reg_28:00000000000000000000000000000000, reg_29:00000000000000000000000000000000, reg_30:00000000000000000000000000000000, reg_31:00000000000000000000000000000000
Time:                  175, PC: 040, Instruction: 00000000000000000000000000000000, ALU_A: 00000000000000000000000000000000, ALU_B:00000000000000000000000000000000, ALU_ans: 00000000000000000000000000000000, Op:000000, Func: 000000
Ext16_signed In:0000000000000000, Ext16_signed Out:00000000000000000000000000000000, Ext16_zero_out         0
RsC:00000, RtC:00000, RdC:00000
MUX_8_out: 00000000000000000000000000000000
reg_0:00000000000000000000000000000000, reg_1:00000000000000000000000000000000, reg_2:00000000000000000000000000000000, reg_3:00000000000000000000000000000000
reg_4:00000000000000000000000000000000, reg_5:00000000000000000000000000000000, reg_6:00000000000000000000000000000000, reg_7:00000000000000000000000000000000
reg_8:00000000000000000000000000000000, reg_9:00000000000000000000000000000000, reg_10:00000000000000000000000000000000, reg_11:00000000000000000000000000000000
reg_12:00000000000000000000000000000000, reg_13:00000000000000000000000000000000, reg_14:00000000000000000000000000000000, reg_15:00000000000000000000000000000000
reg_16:00000000000000000000000000000000, reg_17:00000000000000000000000000000000, reg_18:00000000000000000000000000000000, reg_19:00000000000000000000000000000000
reg_20:00000000000000000000000000000000, reg_21:00000000000000000000000000000000, reg_22:00000000000000000000000000000000, reg_23:00000000000000000000000000000000
reg_24:00000000000000000000000000000000, reg_25:00000000000000000000000000000000, reg_26:00000000000000000000000000000000, reg_27:00000000000000000000000000000000
reg_28:00000000000000000000000000000000, reg_29:00000000000000000000000000000000, reg_30:00000000000000000000000000000000, reg_31:00000000000000000000000000000000
Time:                  185, PC: 044, Instruction: 00000000000000000000000000000000, ALU_A: 00000000000000000000000000000000, ALU_B:00000000000000000000000000000000, ALU_ans: 00000000000000000000000000000000, Op:000000, Func: 000000
Ext16_signed In:0000000000000000, Ext16_signed Out:00000000000000000000000000000000, Ext16_zero_out         0
RsC:00000, RtC:00000, RdC:00000
MUX_8_out: 00000000000000000000000000000000
reg_0:00000000000000000000000000000000, reg_1:00000000000000000000000000000000, reg_2:00000000000000000000000000000000, reg_3:00000000000000000000000000000000
reg_4:00000000000000000000000000000000, reg_5:00000000000000000000000000000000, reg_6:00000000000000000000000000000000, reg_7:00000000000000000000000000000000
reg_8:00000000000000000000000000000000, reg_9:00000000000000000000000000000000, reg_10:00000000000000000000000000000000, reg_11:00000000000000000000000000000000
reg_12:00000000000000000000000000000000, reg_13:00000000000000000000000000000000, reg_14:00000000000000000000000000000000, reg_15:00000000000000000000000000000000
reg_16:00000000000000000000000000000000, reg_17:00000000000000000000000000000000, reg_18:00000000000000000000000000000000, reg_19:00000000000000000000000000000000
reg_20:00000000000000000000000000000000, reg_21:00000000000000000000000000000000, reg_22:00000000000000000000000000000000, reg_23:00000000000000000000000000000000
reg_24:00000000000000000000000000000000, reg_25:00000000000000000000000000000000, reg_26:00000000000000000000000000000000, reg_27:00000000000000000000000000000000
reg_28:00000000000000000000000000000000, reg_29:00000000000000000000000000000000, reg_30:00000000000000000000000000000000, reg_31:00000000000000000000000000000000
Time:                  195, PC: 048, Instruction: 00000000000000000000000000000000, ALU_A: 00000000000000000000000000000000, ALU_B:00000000000000000000000000000000, ALU_ans: 00000000000000000000000000000000, Op:000000, Func: 000000
Ext16_signed In:0000000000000000, Ext16_signed Out:00000000000000000000000000000000, Ext16_zero_out         0
RsC:00000, RtC:00000, RdC:00000
MUX_8_out: 00000000000000000000000000000000
reg_0:00000000000000000000000000000000, reg_1:00000000000000000000000000000000, reg_2:00000000000000000000000000000000, reg_3:00000000000000000000000000000000
reg_4:00000000000000000000000000000000, reg_5:00000000000000000000000000000000, reg_6:00000000000000000000000000000000, reg_7:00000000000000000000000000000000
reg_8:00000000000000000000000000000000, reg_9:00000000000000000000000000000000, reg_10:00000000000000000000000000000000, reg_11:00000000000000000000000000000000
reg_12:00000000000000000000000000000000, reg_13:00000000000000000000000000000000, reg_14:00000000000000000000000000000000, reg_15:00000000000000000000000000000000
reg_16:00000000000000000000000000000000, reg_17:00000000000000000000000000000000, reg_18:00000000000000000000000000000000, reg_19:00000000000000000000000000000000
reg_20:00000000000000000000000000000000, reg_21:00000000000000000000000000000000, reg_22:00000000000000000000000000000000, reg_23:00000000000000000000000000000000
reg_24:00000000000000000000000000000000, reg_25:00000000000000000000000000000000, reg_26:00000000000000000000000000000000, reg_27:00000000000000000000000000000000
reg_28:00000000000000000000000000000000, reg_29:00000000000000000000000000000000, reg_30:00000000000000000000000000000000, reg_31:00000000000000000000000000000000
Time:                  205, PC: 04c, Instruction: 00000000000000000000000000000000, ALU_A: 00000000000000000000000000000000, ALU_B:00000000000000000000000000000000, ALU_ans: 00000000000000000000000000000000, Op:000000, Func: 000000
