Computer_Organization_CPU_Design/Vivado/31CPU_new/31CPU_new.sim/sim_1/behav/xsim/simulate.log
Vivado Simulator 2018.1
Time resolution is 1 ps
WARNING: This core is supplied with a behavioral model. To model cycle-accurate behavior you must run timing simulation.
Time:                    5, PC: 00400000, Instruction: 00000000000000000000000000000000, ALU_A: 00000000000000000000000000000000, ALU_B:00000000000000000000000000000000, ALU_ans: 00000000000000000000000000000000, Op:000000, Func: 000000
Ext16_signed In:0000000000000000, Ext16_signed Out:00000000000000000000000000000000, Ext16_zero_out         0
RsC:00000, RtC:00000, RdC:00000
MUX_8_out: 00000000000000000000000000000000
reg_0:00000000000000000000000000000000, reg_1:00000000000000000000000000000000, reg_2:00000000000000000000000000000000, reg_3:00000000000000000000000000000000
reg_4:00000000000000000000000000000000, reg_5:00000000000000000000000000000000, reg_6:00000000000000000000000000000000, reg_7:00000000000000000000000000000000
reg_8:00000000000000000000000000000000, reg_9:00000000000000000000000000000000, reg_10:00000000000000000000000000000000, reg_11:00000000000000000000000000000000
reg_12:00000000000000000000000000000000, reg_13:00000000000000000000000000000000, reg_14:00000000000000000000000000000000, reg_15:00000000000000000000000000000000
reg_16:00000000000000000000000000000000, reg_17:00000000000000000000000000000000, reg_18:00000000000000000000000000000000, reg_19:00000000000000000000000000000000
reg_20:00000000000000000000000000000000, reg_21:00000000000000000000000000000000, reg_22:00000000000000000000000000000000, reg_23:00000000000000000000000000000000
reg_24:00000000000000000000000000000000, reg_25:00000000000000000000000000000000, reg_26:00000000000000000000000000000000, reg_27:00000000000000000000000000000000
reg_28:00000000000000000000000000000000, reg_29:00000000000000000000000000000000, reg_30:00000000000000000000000000000000, reg_31:00000000000000000000000000000000
Rd_data_out: 00000000000000000000000000000000
Time:                   15, PC: 00400000, Instruction: 00000000000000000000000000000000, ALU_A: 00000000000000000000000000000000, ALU_B:00000000000000000000000000000000, ALU_ans: 00000000000000000000000000000000, Op:000000, Func: 000000
Ext16_signed In:0000000000000000, Ext16_signed Out:00000000000000000000000000000000, Ext16_zero_out         0
RsC:00000, RtC:00000, RdC:00000
MUX_8_out: 00000000000000000000000000000000
reg_0:00000000000000000000000000000000, reg_1:00000000000000000000000000000000, reg_2:00000000000000000000000000000000, reg_3:00000000000000000000000000000000
reg_4:00000000000000000000000000000000, reg_5:00000000000000000000000000000000, reg_6:00000000000000000000000000000000, reg_7:00000000000000000000000000000000
reg_8:00000000000000000000000000000000, reg_9:00000000000000000000000000000000, reg_10:00000000000000000000000000000000, reg_11:00000000000000000000000000000000
reg_12:00000000000000000000000000000000, reg_13:00000000000000000000000000000000, reg_14:00000000000000000000000000000000, reg_15:00000000000000000000000000000000
reg_16:00000000000000000000000000000000, reg_17:00000000000000000000000000000000, reg_18:00000000000000000000000000000000, reg_19:00000000000000000000000000000000
reg_20:00000000000000000000000000000000, reg_21:00000000000000000000000000000000, reg_22:00000000000000000000000000000000, reg_23:00000000000000000000000000000000
reg_24:00000000000000000000000000000000, reg_25:00000000000000000000000000000000, reg_26:00000000000000000000000000000000, reg_27:00000000000000000000000000000000
reg_28:00000000000000000000000000000000, reg_29:00000000000000000000000000000000, reg_30:00000000000000000000000000000000, reg_31:00000000000000000000000000000000
Rd_data_out: 00000000000000000000000000000000
Time:                   25, PC: 00400001, Instruction: 00100000000000000000000000000000, ALU_A: 00000000000000000000000000000000, ALU_B:00000000000000000000000000000000, ALU_ans: 00000000000000000000000000000000, Op:001000, Func: 000000
Ext16_signed In:0000000000000000, Ext16_signed Out:00000000000000000000000000000000, Ext16_zero_out         0
RsC:00000, RtC:00000, RdC:00000
MUX_8_out: 00000000000000000000000000000000
reg_0:00000000000000000000000000000000, reg_1:00000000000000000000000000000000, reg_2:00000000000000000000000000000000, reg_3:00000000000000000000000000000000
reg_4:00000000000000000000000000000000, reg_5:00000000000000000000000000000000, reg_6:00000000000000000000000000000000, reg_7:00000000000000000000000000000000
reg_8:00000000000000000000000000000000, reg_9:00000000000000000000000000000000, reg_10:00000000000000000000000000000000, reg_11:00000000000000000000000000000000
reg_12:00000000000000000000000000000000, reg_13:00000000000000000000000000000000, reg_14:00000000000000000000000000000000, reg_15:00000000000000000000000000000000
reg_16:00000000000000000000000000000000, reg_17:00000000000000000000000000000000, reg_18:00000000000000000000000000000000, reg_19:00000000000000000000000000000000
reg_20:00000000000000000000000000000000, reg_21:00000000000000000000000000000000, reg_22:00000000000000000000000000000000, reg_23:00000000000000000000000000000000
reg_24:00000000000000000000000000000000, reg_25:00000000000000000000000000000000, reg_26:00000000000000000000000000000000, reg_27:00000000000000000000000000000000
reg_28:00000000000000000000000000000000, reg_29:00000000000000000000000000000000, reg_30:00000000000000000000000000000000, reg_31:00000000000000000000000000000000
Rd_data_out: 00000000000000000000000000000000
Time:                   35, PC: 00400002, Instruction: 00100000000000010000000000000001, ALU_A: 00000000000000000000000000000000, ALU_B:00000000000000000000000000000001, ALU_ans: 00000000000000000000000000000001, Op:001000, Func: 000001
Ext16_signed In:0000000000000001, Ext16_signed Out:00000000000000000000000000000001, Ext16_zero_out         1
RsC:00000, RtC:00001, RdC:00000
MUX_8_out: 00000000000000000000000000000001
reg_0:00000000000000000000000000000000, reg_1:00000000000000000000000000000001, reg_2:00000000000000000000000000000000, reg_3:00000000000000000000000000000000
reg_4:00000000000000000000000000000000, reg_5:00000000000000000000000000000000, reg_6:00000000000000000000000000000000, reg_7:00000000000000000000000000000000
reg_8:00000000000000000000000000000000, reg_9:00000000000000000000000000000000, reg_10:00000000000000000000000000000000, reg_11:00000000000000000000000000000000
reg_12:00000000000000000000000000000000, reg_13:00000000000000000000000000000000, reg_14:00000000000000000000000000000000, reg_15:00000000000000000000000000000000
reg_16:00000000000000000000000000000000, reg_17:00000000000000000000000000000000, reg_18:00000000000000000000000000000000, reg_19:00000000000000000000000000000000
reg_20:00000000000000000000000000000000, reg_21:00000000000000000000000000000000, reg_22:00000000000000000000000000000000, reg_23:00000000000000000000000000000000
reg_24:00000000000000000000000000000000, reg_25:00000000000000000000000000000000, reg_26:00000000000000000000000000000000, reg_27:00000000000000000000000000000000
reg_28:00000000000000000000000000000000, reg_29:00000000000000000000000000000000, reg_30:00000000000000000000000000000000, reg_31:00000000000000000000000000000000
Rd_data_out: 00000000000000000000000000000001
Time:                   45, PC: 00400003, Instruction: 00100000000000101111111111111111, ALU_A: 00000000000000000000000000000000, ALU_B:11111111111111111111111111111111, ALU_ans: 11111111111111111111111111111111, Op:001000, Func: 111111
Ext16_signed In:1111111111111111, Ext16_signed Out:11111111111111111111111111111111, Ext16_zero_out     65535
RsC:00000, RtC:00010, RdC:11111
MUX_8_out: 11111111111111111111111111111111
reg_0:00000000000000000000000000000000, reg_1:00000000000000000000000000000001, reg_2:11111111111111111111111111111111, reg_3:00000000000000000000000000000000
reg_4:00000000000000000000000000000000, reg_5:00000000000000000000000000000000, reg_6:00000000000000000000000000000000, reg_7:00000000000000000000000000000000
reg_8:00000000000000000000000000000000, reg_9:00000000000000000000000000000000, reg_10:00000000000000000000000000000000, reg_11:00000000000000000000000000000000
reg_12:00000000000000000000000000000000, reg_13:00000000000000000000000000000000, reg_14:00000000000000000000000000000000, reg_15:00000000000000000000000000000000
reg_16:00000000000000000000000000000000, reg_17:00000000000000000000000000000000, reg_18:00000000000000000000000000000000, reg_19:00000000000000000000000000000000
reg_20:00000000000000000000000000000000, reg_21:00000000000000000000000000000000, reg_22:00000000000000000000000000000000, reg_23:00000000000000000000000000000000
reg_24:00000000000000000000000000000000, reg_25:00000000000000000000000000000000, reg_26:00000000000000000000000000000000, reg_27:00000000000000000000000000000000
reg_28:00000000000000000000000000000000, reg_29:00000000000000000000000000000000, reg_30:00000000000000000000000000000000, reg_31:00000000000000000000000000000000
Rd_data_out: 11111111111111111111111111111111
Time:                   55, PC: 00400004, Instruction: 00111100000000111000000000000000, ALU_A: 00000000000000000000000000000000, ALU_B:00000000000000001000000000000000, ALU_ans: 10000000000000000000000000000000, Op:001111, Func: 000000
Ext16_signed In:1000000000000000, Ext16_signed Out:11111111111111111000000000000000, Ext16_zero_out     32768
RsC:00000, RtC:00011, RdC:10000
MUX_8_out: 00000000000000001000000000000000
reg_0:00000000000000000000000000000000, reg_1:00000000000000000000000000000001, reg_2:11111111111111111111111111111111, reg_3:10000000000000000000000000000000
reg_4:00000000000000000000000000000000, reg_5:00000000000000000000000000000000, reg_6:00000000000000000000000000000000, reg_7:00000000000000000000000000000000
reg_8:00000000000000000000000000000000, reg_9:00000000000000000000000000000000, reg_10:00000000000000000000000000000000, reg_11:00000000000000000000000000000000
reg_12:00000000000000000000000000000000, reg_13:00000000000000000000000000000000, reg_14:00000000000000000000000000000000, reg_15:00000000000000000000000000000000
reg_16:00000000000000000000000000000000, reg_17:00000000000000000000000000000000, reg_18:00000000000000000000000000000000, reg_19:00000000000000000000000000000000
reg_20:00000000000000000000000000000000, reg_21:00000000000000000000000000000000, reg_22:00000000000000000000000000000000, reg_23:00000000000000000000000000000000
reg_24:00000000000000000000000000000000, reg_25:00000000000000000000000000000000, reg_26:00000000000000000000000000000000, reg_27:00000000000000000000000000000000
reg_28:00000000000000000000000000000000, reg_29:00000000000000000000000000000000, reg_30:00000000000000000000000000000000, reg_31:00000000000000000000000000000000
Rd_data_out: 10000000000000000000000000000000
Time:                   65, PC: 00400005, Instruction: 00100000000001000000000000000000, ALU_A: 00000000000000000000000000000000, ALU_B:00000000000000000000000000000000, ALU_ans: 00000000000000000000000000000000, Op:001000, Func: 000000
Ext16_signed In:0000000000000000, Ext16_signed Out:00000000000000000000000000000000, Ext16_zero_out         0
RsC:00000, RtC:00100, RdC:00000
MUX_8_out: 00000000000000000000000000000000
reg_0:00000000000000000000000000000000, reg_1:00000000000000000000000000000001, reg_2:11111111111111111111111111111111, reg_3:10000000000000000000000000000000
reg_4:00000000000000000000000000000000, reg_5:00000000000000000000000000000000, reg_6:00000000000000000000000000000000, reg_7:00000000000000000000000000000000
reg_8:00000000000000000000000000000000, reg_9:00000000000000000000000000000000, reg_10:00000000000000000000000000000000, reg_11:00000000000000000000000000000000
reg_12:00000000000000000000000000000000, reg_13:00000000000000000000000000000000, reg_14:00000000000000000000000000000000, reg_15:00000000000000000000000000000000
reg_16:00000000000000000000000000000000, reg_17:00000000000000000000000000000000, reg_18:00000000000000000000000000000000, reg_19:00000000000000000000000000000000
reg_20:00000000000000000000000000000000, reg_21:00000000000000000000000000000000, reg_22:00000000000000000000000000000000, reg_23:00000000000000000000000000000000
reg_24:00000000000000000000000000000000, reg_25:00000000000000000000000000000000, reg_26:00000000000000000000000000000000, reg_27:00000000000000000000000000000000
reg_28:00000000000000000000000000000000, reg_29:00000000000000000000000000000000, reg_30:00000000000000000000000000000000, reg_31:00000000000000000000000000000000
Rd_data_out: 00000000000000000000000000000000
Time:                   75, PC: 00400006, Instruction: 00100000000001010000000000000001, ALU_A: 00000000000000000000000000000000, ALU_B:00000000000000000000000000000001, ALU_ans: 00000000000000000000000000000001, Op:001000, Func: 000001
Ext16_signed In:0000000000000001, Ext16_signed Out:00000000000000000000000000000001, Ext16_zero_out         1
RsC:00000, RtC:00101, RdC:00000
MUX_8_out: 00000000000000000000000000000001
reg_0:00000000000000000000000000000000, reg_1:00000000000000000000000000000001, reg_2:11111111111111111111111111111111, reg_3:10000000000000000000000000000000
reg_4:00000000000000000000000000000000, reg_5:00000000000000000000000000000001, reg_6:00000000000000000000000000000000, reg_7:00000000000000000000000000000000
reg_8:00000000000000000000000000000000, reg_9:00000000000000000000000000000000, reg_10:00000000000000000000000000000000, reg_11:00000000000000000000000000000000
reg_12:00000000000000000000000000000000, reg_13:00000000000000000000000000000000, reg_14:00000000000000000000000000000000, reg_15:00000000000000000000000000000000
reg_16:00000000000000000000000000000000, reg_17:00000000000000000000000000000000, reg_18:00000000000000000000000000000000, reg_19:00000000000000000000000000000000
reg_20:00000000000000000000000000000000, reg_21:00000000000000000000000000000000, reg_22:00000000000000000000000000000000, reg_23:00000000000000000000000000000000
reg_24:00000000000000000000000000000000, reg_25:00000000000000000000000000000000, reg_26:00000000000000000000000000000000, reg_27:00000000000000000000000000000000
reg_28:00000000000000000000000000000000, reg_29:00000000000000000000000000000000, reg_30:00000000000000000000000000000000, reg_31:00000000000000000000000000000000
Rd_data_out: 00000000000000000000000000000001
Time:                   85, PC: 00400007, Instruction: 00100000000001100000000000000010, ALU_A: 00000000000000000000000000000000, ALU_B:00000000000000000000000000000010, ALU_ans: 00000000000000000000000000000010, Op:001000, Func: 000010
Ext16_signed In:0000000000000010, Ext16_signed Out:00000000000000000000000000000010, Ext16_zero_out         2
RsC:00000, RtC:00110, RdC:00000
MUX_8_out: 00000000000000000000000000000010
reg_0:00000000000000000000000000000000, reg_1:00000000000000000000000000000001, reg_2:11111111111111111111111111111111, reg_3:10000000000000000000000000000000
reg_4:00000000000000000000000000000000, reg_5:00000000000000000000000000000001, reg_6:00000000000000000000000000000010, reg_7:00000000000000000000000000000000
reg_8:00000000000000000000000000000000, reg_9:00000000000000000000000000000000, reg_10:00000000000000000000000000000000, reg_11:00000000000000000000000000000000
reg_12:00000000000000000000000000000000, reg_13:00000000000000000000000000000000, reg_14:00000000000000000000000000000000, reg_15:00000000000000000000000000000000
reg_16:00000000000000000000000000000000, reg_17:00000000000000000000000000000000, reg_18:00000000000000000000000000000000, reg_19:00000000000000000000000000000000
reg_20:00000000000000000000000000000000, reg_21:00000000000000000000000000000000, reg_22:00000000000000000000000000000000, reg_23:00000000000000000000000000000000
reg_24:00000000000000000000000000000000, reg_25:00000000000000000000000000000000, reg_26:00000000000000000000000000000000, reg_27:00000000000000000000000000000000
reg_28:00000000000000000000000000000000, reg_29:00000000000000000000000000000000, reg_30:00000000000000000000000000000000, reg_31:00000000000000000000000000000000
Rd_data_out: 00000000000000000000000000000010
Time:                   95, PC: 00400008, Instruction: 00100000000001110000000000000011, ALU_A: 00000000000000000000000000000000, ALU_B:00000000000000000000000000000011, ALU_ans: 00000000000000000000000000000011, Op:001000, Func: 000011
Ext16_signed In:0000000000000011, Ext16_signed Out:00000000000000000000000000000011, Ext16_zero_out         3
RsC:00000, RtC:00111, RdC:00000
MUX_8_out: 00000000000000000000000000000011
reg_0:00000000000000000000000000000000, reg_1:00000000000000000000000000000001, reg_2:11111111111111111111111111111111, reg_3:10000000000000000000000000000000
reg_4:00000000000000000000000000000000, reg_5:00000000000000000000000000000001, reg_6:00000000000000000000000000000010, reg_7:00000000000000000000000000000011
reg_8:00000000000000000000000000000000, reg_9:00000000000000000000000000000000, reg_10:00000000000000000000000000000000, reg_11:00000000000000000000000000000000
reg_12:00000000000000000000000000000000, reg_13:00000000000000000000000000000000, reg_14:00000000000000000000000000000000, reg_15:00000000000000000000000000000000
reg_16:00000000000000000000000000000000, reg_17:00000000000000000000000000000000, reg_18:00000000000000000000000000000000, reg_19:00000000000000000000000000000000
reg_20:00000000000000000000000000000000, reg_21:00000000000000000000000000000000, reg_22:00000000000000000000000000000000, reg_23:00000000000000000000000000000000
reg_24:00000000000000000000000000000000, reg_25:00000000000000000000000000000000, reg_26:00000000000000000000000000000000, reg_27:00000000000000000000000000000000
reg_28:00000000000000000000000000000000, reg_29:00000000000000000000000000000000, reg_30:00000000000000000000000000000000, reg_31:00000000000000000000000000000000
Rd_data_out: 00000000000000000000000000000011
Time:                  105, PC: 00400009, Instruction: 00100000000010000000000000000100, ALU_A: 00000000000000000000000000000000, ALU_B:00000000000000000000000000000100, ALU_ans: 00000000000000000000000000000100, Op:001000, Func: 000100
Ext16_signed In:0000000000000100, Ext16_signed Out:00000000000000000000000000000100, Ext16_zero_out         4
RsC:00000, RtC:01000, RdC:00000
MUX_8_out: 00000000000000000000000000000100
reg_0:00000000000000000000000000000000, reg_1:00000000000000000000000000000001, reg_2:11111111111111111111111111111111, reg_3:10000000000000000000000000000000
reg_4:00000000000000000000000000000000, reg_5:00000000000000000000000000000001, reg_6:00000000000000000000000000000010, reg_7:00000000000000000000000000000011
reg_8:00000000000000000000000000000100, reg_9:00000000000000000000000000000000, reg_10:00000000000000000000000000000000, reg_11:00000000000000000000000000000000
reg_12:00000000000000000000000000000000, reg_13:00000000000000000000000000000000, reg_14:00000000000000000000000000000000, reg_15:00000000000000000000000000000000
reg_16:00000000000000000000000000000000, reg_17:00000000000000000000000000000000, reg_18:00000000000000000000000000000000, reg_19:00000000000000000000000000000000
reg_20:00000000000000000000000000000000, reg_21:00000000000000000000000000000000, reg_22:00000000000000000000000000000000, reg_23:00000000000000000000000000000000
reg_24:00000000000000000000000000000000, reg_25:00000000000000000000000000000000, reg_26:00000000000000000000000000000000, reg_27:00000000000000000000000000000000
reg_28:00000000000000000000000000000000, reg_29:00000000000000000000000000000000, reg_30:00000000000000000000000000000000, reg_31:00000000000000000000000000000000
Rd_data_out: 00000000000000000000000000000100
Time:                  115, PC: 0040000a, Instruction: 00100000000010010000000000000101, ALU_A: 00000000000000000000000000000000, ALU_B:00000000000000000000000000000101, ALU_ans: 00000000000000000000000000000101, Op:001000, Func: 000101
Ext16_signed In:0000000000000101, Ext16_signed Out:00000000000000000000000000000101, Ext16_zero_out         5
RsC:00000, RtC:01001, RdC:00000
MUX_8_out: 00000000000000000000000000000101
reg_0:00000000000000000000000000000000, reg_1:00000000000000000000000000000001, reg_2:11111111111111111111111111111111, reg_3:10000000000000000000000000000000
reg_4:00000000000000000000000000000000, reg_5:00000000000000000000000000000001, reg_6:00000000000000000000000000000010, reg_7:00000000000000000000000000000011
reg_8:00000000000000000000000000000100, reg_9:00000000000000000000000000000101, reg_10:00000000000000000000000000000000, reg_11:00000000000000000000000000000000
reg_12:00000000000000000000000000000000, reg_13:00000000000000000000000000000000, reg_14:00000000000000000000000000000000, reg_15:00000000000000000000000000000000
reg_16:00000000000000000000000000000000, reg_17:00000000000000000000000000000000, reg_18:00000000000000000000000000000000, reg_19:00000000000000000000000000000000
reg_20:00000000000000000000000000000000, reg_21:00000000000000000000000000000000, reg_22:00000000000000000000000000000000, reg_23:00000000000000000000000000000000
reg_24:00000000000000000000000000000000, reg_25:00000000000000000000000000000000, reg_26:00000000000000000000000000000000, reg_27:00000000000000000000000000000000
reg_28:00000000000000000000000000000000, reg_29:00000000000000000000000000000000, reg_30:00000000000000000000000000000000, reg_31:00000000000000000000000000000000
Rd_data_out: 00000000000000000000000000000101
Time:                  125, PC: 0040000b, Instruction: 00100000000010100000000000000110, ALU_A: 00000000000000000000000000000000, ALU_B:00000000000000000000000000000110, ALU_ans: 00000000000000000000000000000110, Op:001000, Func: 000110
Ext16_signed In:0000000000000110, Ext16_signed Out:00000000000000000000000000000110, Ext16_zero_out         6
RsC:00000, RtC:01010, RdC:00000
MUX_8_out: 00000000000000000000000000000110
reg_0:00000000000000000000000000000000, reg_1:00000000000000000000000000000001, reg_2:11111111111111111111111111111111, reg_3:10000000000000000000000000000000
reg_4:00000000000000000000000000000000, reg_5:00000000000000000000000000000001, reg_6:00000000000000000000000000000010, reg_7:00000000000000000000000000000011
reg_8:00000000000000000000000000000100, reg_9:00000000000000000000000000000101, reg_10:00000000000000000000000000000110, reg_11:00000000000000000000000000000000
reg_12:00000000000000000000000000000000, reg_13:00000000000000000000000000000000, reg_14:00000000000000000000000000000000, reg_15:00000000000000000000000000000000
reg_16:00000000000000000000000000000000, reg_17:00000000000000000000000000000000, reg_18:00000000000000000000000000000000, reg_19:00000000000000000000000000000000
reg_20:00000000000000000000000000000000, reg_21:00000000000000000000000000000000, reg_22:00000000000000000000000000000000, reg_23:00000000000000000000000000000000
reg_24:00000000000000000000000000000000, reg_25:00000000000000000000000000000000, reg_26:00000000000000000000000000000000, reg_27:00000000000000000000000000000000
reg_28:00000000000000000000000000000000, reg_29:00000000000000000000000000000000, reg_30:00000000000000000000000000000000, reg_31:00000000000000000000000000000000
Rd_data_out: 00000000000000000000000000000110
Time:                  135, PC: 0040000c, Instruction: 00100000000010110000000000000111, ALU_A: 00000000000000000000000000000000, ALU_B:00000000000000000000000000000111, ALU_ans: 00000000000000000000000000000111, Op:001000, Func: 000111
Ext16_signed In:0000000000000111, Ext16_signed Out:00000000000000000000000000000111, Ext16_zero_out         7
RsC:00000, RtC:01011, RdC:00000
MUX_8_out: 00000000000000000000000000000111
reg_0:00000000000000000000000000000000, reg_1:00000000000000000000000000000001, reg_2:11111111111111111111111111111111, reg_3:10000000000000000000000000000000
reg_4:00000000000000000000000000000000, reg_5:00000000000000000000000000000001, reg_6:00000000000000000000000000000010, reg_7:00000000000000000000000000000011
reg_8:00000000000000000000000000000100, reg_9:00000000000000000000000000000101, reg_10:00000000000000000000000000000110, reg_11:00000000000000000000000000000111
reg_12:00000000000000000000000000000000, reg_13:00000000000000000000000000000000, reg_14:00000000000000000000000000000000, reg_15:00000000000000000000000000000000
reg_16:00000000000000000000000000000000, reg_17:00000000000000000000000000000000, reg_18:00000000000000000000000000000000, reg_19:00000000000000000000000000000000
reg_20:00000000000000000000000000000000, reg_21:00000000000000000000000000000000, reg_22:00000000000000000000000000000000, reg_23:00000000000000000000000000000000
reg_24:00000000000000000000000000000000, reg_25:00000000000000000000000000000000, reg_26:00000000000000000000000000000000, reg_27:00000000000000000000000000000000
reg_28:00000000000000000000000000000000, reg_29:00000000000000000000000000000000, reg_30:00000000000000000000000000000000, reg_31:00000000000000000000000000000000
Rd_data_out: 00000000000000000000000000000111
Time:                  145, PC: 0040000d, Instruction: 00100000000011000000000000001000, ALU_A: 00000000000000000000000000000000, ALU_B:00000000000000000000000000001000, ALU_ans: 00000000000000000000000000001000, Op:001000, Func: 001000
Ext16_signed In:0000000000001000, Ext16_signed Out:00000000000000000000000000001000, Ext16_zero_out         8
RsC:00000, RtC:01100, RdC:00000
MUX_8_out: 00000000000000000000000000001000
reg_0:00000000000000000000000000000000, reg_1:00000000000000000000000000000001, reg_2:11111111111111111111111111111111, reg_3:10000000000000000000000000000000
reg_4:00000000000000000000000000000000, reg_5:00000000000000000000000000000001, reg_6:00000000000000000000000000000010, reg_7:00000000000000000000000000000011
reg_8:00000000000000000000000000000100, reg_9:00000000000000000000000000000101, reg_10:00000000000000000000000000000110, reg_11:00000000000000000000000000000111
reg_12:00000000000000000000000000001000, reg_13:00000000000000000000000000000000, reg_14:00000000000000000000000000000000, reg_15:00000000000000000000000000000000
reg_16:00000000000000000000000000000000, reg_17:00000000000000000000000000000000, reg_18:00000000000000000000000000000000, reg_19:00000000000000000000000000000000
reg_20:00000000000000000000000000000000, reg_21:00000000000000000000000000000000, reg_22:00000000000000000000000000000000, reg_23:00000000000000000000000000000000
reg_24:00000000000000000000000000000000, reg_25:00000000000000000000000000000000, reg_26:00000000000000000000000000000000, reg_27:00000000000000000000000000000000
reg_28:00000000000000000000000000000000, reg_29:00000000000000000000000000000000, reg_30:00000000000000000000000000000000, reg_31:00000000000000000000000000000000
Rd_data_out: 00000000000000000000000000001000
Time:                  155, PC: 0040000e, Instruction: 00100000000011010000000000001001, ALU_A: 00000000000000000000000000000000, ALU_B:00000000000000000000000000001001, ALU_ans: 00000000000000000000000000001001, Op:001000, Func: 001001
Ext16_signed In:0000000000001001, Ext16_signed Out:00000000000000000000000000001001, Ext16_zero_out         9
RsC:00000, RtC:01101, RdC:00000
MUX_8_out: 00000000000000000000000000001001
reg_0:00000000000000000000000000000000, reg_1:00000000000000000000000000000001, reg_2:11111111111111111111111111111111, reg_3:10000000000000000000000000000000
reg_4:00000000000000000000000000000000, reg_5:00000000000000000000000000000001, reg_6:00000000000000000000000000000010, reg_7:00000000000000000000000000000011
reg_8:00000000000000000000000000000100, reg_9:00000000000000000000000000000101, reg_10:00000000000000000000000000000110, reg_11:00000000000000000000000000000111
reg_12:00000000000000000000000000001000, reg_13:00000000000000000000000000001001, reg_14:00000000000000000000000000000000, reg_15:00000000000000000000000000000000
reg_16:00000000000000000000000000000000, reg_17:00000000000000000000000000000000, reg_18:00000000000000000000000000000000, reg_19:00000000000000000000000000000000
reg_20:00000000000000000000000000000000, reg_21:00000000000000000000000000000000, reg_22:00000000000000000000000000000000, reg_23:00000000000000000000000000000000
reg_24:00000000000000000000000000000000, reg_25:00000000000000000000000000000000, reg_26:00000000000000000000000000000000, reg_27:00000000000000000000000000000000
reg_28:00000000000000000000000000000000, reg_29:00000000000000000000000000000000, reg_30:00000000000000000000000000000000, reg_31:00000000000000000000000000000000
Rd_data_out: 00000000000000000000000000001001
Time:                  165, PC: 0040000f, Instruction: 00100000000011100000000000001010, ALU_A: 00000000000000000000000000000000, ALU_B:00000000000000000000000000001010, ALU_ans: 00000000000000000000000000001010, Op:001000, Func: 001010
Ext16_signed In:0000000000001010, Ext16_signed Out:00000000000000000000000000001010, Ext16_zero_out        10
RsC:00000, RtC:01110, RdC:00000
MUX_8_out: 00000000000000000000000000001010
reg_0:00000000000000000000000000000000, reg_1:00000000000000000000000000000001, reg_2:11111111111111111111111111111111, reg_3:10000000000000000000000000000000
reg_4:00000000000000000000000000000000, reg_5:00000000000000000000000000000001, reg_6:00000000000000000000000000000010, reg_7:00000000000000000000000000000011
reg_8:00000000000000000000000000000100, reg_9:00000000000000000000000000000101, reg_10:00000000000000000000000000000110, reg_11:00000000000000000000000000000111
reg_12:00000000000000000000000000001000, reg_13:00000000000000000000000000001001, reg_14:00000000000000000000000000001010, reg_15:00000000000000000000000000000000
reg_16:00000000000000000000000000000000, reg_17:00000000000000000000000000000000, reg_18:00000000000000000000000000000000, reg_19:00000000000000000000000000000000
reg_20:00000000000000000000000000000000, reg_21:00000000000000000000000000000000, reg_22:00000000000000000000000000000000, reg_23:00000000000000000000000000000000
reg_24:00000000000000000000000000000000, reg_25:00000000000000000000000000000000, reg_26:00000000000000000000000000000000, reg_27:00000000000000000000000000000000
reg_28:00000000000000000000000000000000, reg_29:00000000000000000000000000000000, reg_30:00000000000000000000000000000000, reg_31:00000000000000000000000000000000
Rd_data_out: 00000000000000000000000000001010
Time:                  175, PC: 00400010, Instruction: 00100000000011110000000000001011, ALU_A: 00000000000000000000000000000000, ALU_B:00000000000000000000000000001011, ALU_ans: 00000000000000000000000000001011, Op:001000, Func: 001011
Ext16_signed In:0000000000001011, Ext16_signed Out:00000000000000000000000000001011, Ext16_zero_out        11
RsC:00000, RtC:01111, RdC:00000
MUX_8_out: 00000000000000000000000000001011
reg_0:00000000000000000000000000000000, reg_1:00000000000000000000000000000001, reg_2:11111111111111111111111111111111, reg_3:10000000000000000000000000000000
reg_4:00000000000000000000000000000000, reg_5:00000000000000000000000000000001, reg_6:00000000000000000000000000000010, reg_7:00000000000000000000000000000011
reg_8:00000000000000000000000000000100, reg_9:00000000000000000000000000000101, reg_10:00000000000000000000000000000110, reg_11:00000000000000000000000000000111
reg_12:00000000000000000000000000001000, reg_13:00000000000000000000000000001001, reg_14:00000000000000000000000000001010, reg_15:00000000000000000000000000001011
reg_16:00000000000000000000000000000000, reg_17:00000000000000000000000000000000, reg_18:00000000000000000000000000000000, reg_19:00000000000000000000000000000000
reg_20:00000000000000000000000000000000, reg_21:00000000000000000000000000000000, reg_22:00000000000000000000000000000000, reg_23:00000000000000000000000000000000
reg_24:00000000000000000000000000000000, reg_25:00000000000000000000000000000000, reg_26:00000000000000000000000000000000, reg_27:00000000000000000000000000000000
reg_28:00000000000000000000000000000000, reg_29:00000000000000000000000000000000, reg_30:00000000000000000000000000000000, reg_31:00000000000000000000000000000000
Rd_data_out: 00000000000000000000000000001011
Time:                  185, PC: 00400011, Instruction: 00100000000100000000000000001100, ALU_A: 00000000000000000000000000000000, ALU_B:00000000000000000000000000001100, ALU_ans: 00000000000000000000000000001100, Op:001000, Func: 001100
Ext16_signed In:0000000000001100, Ext16_signed Out:00000000000000000000000000001100, Ext16_zero_out        12
RsC:00000, RtC:10000, RdC:00000
MUX_8_out: 00000000000000000000000000001100
reg_0:00000000000000000000000000000000, reg_1:00000000000000000000000000000001, reg_2:11111111111111111111111111111111, reg_3:10000000000000000000000000000000
reg_4:00000000000000000000000000000000, reg_5:00000000000000000000000000000001, reg_6:00000000000000000000000000000010, reg_7:00000000000000000000000000000011
reg_8:00000000000000000000000000000100, reg_9:00000000000000000000000000000101, reg_10:00000000000000000000000000000110, reg_11:00000000000000000000000000000111
reg_12:00000000000000000000000000001000, reg_13:00000000000000000000000000001001, reg_14:00000000000000000000000000001010, reg_15:00000000000000000000000000001011
reg_16:00000000000000000000000000001100, reg_17:00000000000000000000000000000000, reg_18:00000000000000000000000000000000, reg_19:00000000000000000000000000000000
reg_20:00000000000000000000000000000000, reg_21:00000000000000000000000000000000, reg_22:00000000000000000000000000000000, reg_23:00000000000000000000000000000000
reg_24:00000000000000000000000000000000, reg_25:00000000000000000000000000000000, reg_26:00000000000000000000000000000000, reg_27:00000000000000000000000000000000
reg_28:00000000000000000000000000000000, reg_29:00000000000000000000000000000000, reg_30:00000000000000000000000000000000, reg_31:00000000000000000000000000000000
Rd_data_out: 00000000000000000000000000001100
Time:                  195, PC: 00400012, Instruction: 00100000000100010000000000001101, ALU_A: 00000000000000000000000000000000, ALU_B:00000000000000000000000000001101, ALU_ans: 00000000000000000000000000001101, Op:001000, Func: 001101
Ext16_signed In:0000000000001101, Ext16_signed Out:00000000000000000000000000001101, Ext16_zero_out        13
RsC:00000, RtC:10001, RdC:00000
MUX_8_out: 00000000000000000000000000001101
reg_0:00000000000000000000000000000000, reg_1:00000000000000000000000000000001, reg_2:11111111111111111111111111111111, reg_3:10000000000000000000000000000000
reg_4:00000000000000000000000000000000, reg_5:00000000000000000000000000000001, reg_6:00000000000000000000000000000010, reg_7:00000000000000000000000000000011
reg_8:00000000000000000000000000000100, reg_9:00000000000000000000000000000101, reg_10:00000000000000000000000000000110, reg_11:00000000000000000000000000000111
