Computer_Organization_CPU_Design/Vivado/Lab_2/ThirtyTwo_Bit_Multiplier/ThirtyTwo_Bit_Multiplier.sim/sim_1/behav/xsim/simulate.log
Vivado Simulator 2018.1
Time resolution is 1 ps
Time=                   0, clk=0, reset=1, a=         0, b=         0, ans=0000000000000000
Time=                5000, clk=1, reset=1, a=         0, b=         0, ans=0000000000000000
Time=               10000, clk=0, reset=0, a=         0, b=         0, ans=0000000000000000
Time=               15000, clk=1, reset=0, a=         0, b=         0, ans=0000000000000000
Time=               20000, clk=0, reset=0, a=       150, b=        17, ans=0000000000000000
Time=               25000, clk=1, reset=0, a=       150, b=        17, ans=0000000000000000
Time=               30000, clk=0, reset=0, a=       150, b=        17, ans=0000000000000000
Time=               35000, clk=1, reset=0, a=       150, b=        17, ans=0000000000000000
Time=               40000, clk=0, reset=0, a=       150, b=        17, ans=0000000000000000
Time=               45000, clk=1, reset=0, a=       150, b=        17, ans=0000000000000096
Time=               50000, clk=0, reset=0, a=       150, b=        17, ans=0000000000000096
Time=               55000, clk=1, reset=0, a=       150, b=        17, ans=000000000000012c
Time=               60000, clk=0, reset=0, a=       150, b=        17, ans=000000000000012c
Time=               65000, clk=1, reset=0, a=       150, b=        17, ans=00000000000001c2
Time=               70000, clk=0, reset=0, a=       150, b=        17, ans=00000000000001c2
Time=               75000, clk=1, reset=0, a=       150, b=        17, ans=0000000000000258
Time=               80000, clk=0, reset=0, a=       150, b=        17, ans=0000000000000258
Time=               85000, clk=1, reset=0, a=       150, b=        17, ans=00000000000002ee
Time=               90000, clk=0, reset=0, a=       150, b=        17, ans=00000000000002ee
Time=               95000, clk=1, reset=0, a=       150, b=        17, ans=0000000000000384
Time=              100000, clk=0, reset=0, a=       150, b=        17, ans=0000000000000384
Time=              105000, clk=1, reset=0, a=       150, b=        17, ans=000000000000041a
Time=              110000, clk=0, reset=0, a=       150, b=        17, ans=000000000000041a
Time=              115000, clk=1, reset=0, a=       150, b=        17, ans=00000000000004b0
Time=              120000, clk=0, reset=0, a=       150, b=        17, ans=00000000000004b0
Time=              125000, clk=1, reset=0, a=       150, b=        17, ans=0000000000000546
Time=              130000, clk=0, reset=0, a=       150, b=        17, ans=0000000000000546
Time=              135000, clk=1, reset=0, a=       150, b=        17, ans=00000000000005dc
Time=              140000, clk=0, reset=0, a=       150, b=        17, ans=00000000000005dc
Time=              145000, clk=1, reset=0, a=       150, b=        17, ans=0000000000000672
Time=              150000, clk=0, reset=0, a=       150, b=        17, ans=0000000000000672
Time=              155000, clk=1, reset=0, a=       150, b=        17, ans=0000000000000708
Time=              160000, clk=0, reset=0, a=       150, b=        17, ans=0000000000000708
Time=              165000, clk=1, reset=0, a=       150, b=        17, ans=000000000000079e
Time=              170000, clk=0, reset=0, a=       150, b=        17, ans=000000000000079e
Time=              175000, clk=1, reset=0, a=       150, b=        17, ans=0000000000000834
Time=              180000, clk=0, reset=0, a=       150, b=        17, ans=0000000000000834
Time=              185000, clk=1, reset=0, a=       150, b=        17, ans=00000000000008ca
Time=              190000, clk=0, reset=0, a=       150, b=        17, ans=00000000000008ca
Time=              195000, clk=1, reset=0, a=       150, b=        17, ans=0000000000000960
Time=              200000, clk=0, reset=0, a=       150, b=        17, ans=0000000000000960
Time=              205000, clk=1, reset=0, a=       150, b=        17, ans=00000000000009f6
Time=              210000, clk=0, reset=0, a=       150, b=        17, ans=00000000000009f6
Time=              215000, clk=1, reset=0, a=       150, b=        17, ans=0000000000000a8c
Time=              220000, clk=0, reset=0, a=       150, b=        17, ans=0000000000000a8c
Time=              225000, clk=1, reset=0, a=       150, b=        17, ans=0000000000000b22
Time=              230000, clk=0, reset=0, a=       150, b=        17, ans=0000000000000b22
Time=              235000, clk=1, reset=0, a=       150, b=        17, ans=0000000000000bb8
Time=              240000, clk=0, reset=0, a=       150, b=        17, ans=0000000000000bb8
Time=              245000, clk=1, reset=0, a=       150, b=        17, ans=0000000000000c4e
Time=              250000, clk=0, reset=0, a=       150, b=        17, ans=0000000000000c4e
Time=              255000, clk=1, reset=0, a=       150, b=        17, ans=0000000000000ce4
Time=              260000, clk=0, reset=0, a=       150, b=        17, ans=0000000000000ce4
Time=              265000, clk=1, reset=0, a=       150, b=        17, ans=0000000000000d7a
Time=              270000, clk=0, reset=0, a=       150, b=        17, ans=0000000000000d7a
Time=              275000, clk=1, reset=0, a=       150, b=        17, ans=0000000000000e10
Time=              280000, clk=0, reset=0, a=       150, b=        17, ans=0000000000000e10
Time=              285000, clk=1, reset=0, a=       150, b=        17, ans=0000000000000ea6
Time=              290000, clk=0, reset=0, a=       150, b=        17, ans=0000000000000ea6
Time=              295000, clk=1, reset=0, a=       150, b=        17, ans=0000000000000f3c
Time=              300000, clk=0, reset=0, a=       150, b=        17, ans=0000000000000f3c
Time=              305000, clk=1, reset=0, a=       150, b=        17, ans=0000000000000fd2
Time=              310000, clk=0, reset=0, a=       150, b=        17, ans=0000000000000fd2
Time=              315000, clk=1, reset=0, a=       150, b=        17, ans=0000000000001068
Time=              320000, clk=0, reset=0, a=       150, b=        17, ans=0000000000001068
Time=              325000, clk=1, reset=0, a=       150, b=        17, ans=00000000000010fe
Time=              330000, clk=0, reset=0, a=       150, b=        17, ans=00000000000010fe
Time=              335000, clk=1, reset=0, a=       150, b=        17, ans=0000000000001194
Time=              340000, clk=0, reset=0, a=       150, b=        17, ans=0000000000001194
Time=              345000, clk=1, reset=0, a=       150, b=        17, ans=000000000000122a
Time=              350000, clk=0, reset=0, a=       150, b=        17, ans=000000000000122a
Time=              355000, clk=1, reset=0, a=       150, b=        17, ans=00000000000012c0
Time=              360000, clk=0, reset=0, a=       150, b=        17, ans=00000000000012c0
Time=              365000, clk=1, reset=0, a=       150, b=        17, ans=0000000000001356
Time=              370000, clk=0, reset=0, a=       150, b=        17, ans=0000000000001356
Time=              375000, clk=1, reset=0, a=       150, b=        17, ans=00000000000013ec
Time=              380000, clk=0, reset=0, a=       150, b=        17, ans=00000000000013ec
Time=              385000, clk=1, reset=0, a=       150, b=        17, ans=0000000000001482
Time=              390000, clk=0, reset=0, a=       150, b=        17, ans=0000000000001482
Time=              395000, clk=1, reset=0, a=       150, b=        17, ans=0000000000001518
Time=              400000, clk=0, reset=0, a=       150, b=        17, ans=0000000000001518
Time=              405000, clk=1, reset=0, a=       150, b=        17, ans=00000000000015ae
Time=              410000, clk=0, reset=0, a=       150, b=        17, ans=00000000000015ae
Time=              415000, clk=1, reset=0, a=       150, b=        17, ans=0000000000001644
Time=              420000, clk=0, reset=0, a=       150, b=        17, ans=0000000000001644
Time=              425000, clk=1, reset=0, a=       150, b=        17, ans=00000000000016da
Time=              430000, clk=0, reset=0, a=       150, b=        17, ans=00000000000016da
Time=              435000, clk=1, reset=0, a=       150, b=        17, ans=0000000000001770
Time=              440000, clk=0, reset=0, a=       150, b=        17, ans=0000000000001770
Time=              445000, clk=1, reset=0, a=       150, b=        17, ans=0000000000001806
Time=              450000, clk=0, reset=0, a=       150, b=        17, ans=0000000000001806
Time=              455000, clk=1, reset=0, a=       150, b=        17, ans=000000000000189c
Time=              460000, clk=0, reset=0, a=       150, b=        17, ans=000000000000189c
Time=              465000, clk=1, reset=0, a=       150, b=        17, ans=0000000000001932
Time=              470000, clk=0, reset=0, a=       150, b=        17, ans=0000000000001932
Time=              475000, clk=1, reset=0, a=       150, b=        17, ans=00000000000019c8
Time=              480000, clk=0, reset=0, a=       150, b=        17, ans=00000000000019c8
Time=              485000, clk=1, reset=0, a=       150, b=        17, ans=0000000000001a5e
Time=              490000, clk=0, reset=0, a=       150, b=        17, ans=0000000000001a5e
Time=              495000, clk=1, reset=0, a=       150, b=        17, ans=0000000000001af4
Time=              500000, clk=0, reset=0, a=       150, b=        17, ans=0000000000001af4
Time=              505000, clk=1, reset=0, a=       150, b=        17, ans=0000000000001b8a
Time=              510000, clk=0, reset=0, a=       150, b=        17, ans=0000000000001b8a
Time=              515000, clk=1, reset=0, a=       150, b=        17, ans=0000000000001c20
$finish called at time : 520 ns : File "C:/Users/ugnjhjf/Desktop/COMP/Computer_Organization_CPU_Design/Vivado/Lab_2/ThirtyTwo_Bit_Multiplier/ThirtyTwo_Bit_Multiplier.srcs/sim_1/new/stimuli_adder_32bit_no_sign.v" Line 57
